%YAML 1.1
%TAG !u! tag:unity3d.com,2011:
--- !u!1 &523301185073338169
GameObject:
  m_ObjectHideFlags: 0
  m_CorrespondingSourceObject: {fileID: 0}
  m_PrefabInstance: {fileID: 0}
  m_PrefabAsset: {fileID: 0}
  serializedVersion: 6
  m_Component:
  - component: {fileID: 250251613931670505}
  m_Layer: 0
  m_Name: FinishConfetti
  m_TagString: Untagged
  m_Icon: {fileID: 0}
  m_NavMeshLayer: 0
  m_StaticEditorFlags: 0
  m_IsActive: 1
--- !u!4 &250251613931670505
Transform:
  m_ObjectHideFlags: 0
  m_CorrespondingSourceObject: {fileID: 0}
  m_PrefabInstance: {fileID: 0}
  m_PrefabAsset: {fileID: 0}
  m_GameObject: {fileID: 523301185073338169}
  m_LocalRotation: {x: 0, y: 0, z: 0, w: 1}
  m_LocalPosition: {x: 0, y: 0, z: 0}
  m_LocalScale: {x: 1, y: 1, z: 1}
  m_Children:
  - {fileID: 1330136509912140486}
  - {fileID: 1330136509729922594}
  m_Father: {fileID: 0}
  m_RootOrder: 0
  m_LocalEulerAnglesHint: {x: 0, y: 0, z: 0}
--- !u!1001 &1330136509730043682
PrefabInstance:
  m_ObjectHideFlags: 0
  serializedVersion: 2
  m_Modification:
    m_TransformParent: {fileID: 250251613931670505}
    m_Modifications:
    - target: {fileID: 127810, guid: 36bdc02b23d9ca94d93bd715c0cca5c0, type: 3}
      propertyPath: m_IsActive
      value: 0
      objectReference: {fileID: 0}
    - target: {fileID: 129898, guid: 36bdc02b23d9ca94d93bd715c0cca5c0, type: 3}
      propertyPath: m_Name
      value: ConfettiBlastRainbow (1)
      objectReference: {fileID: 0}
    - target: {fileID: 420096, guid: 36bdc02b23d9ca94d93bd715c0cca5c0, type: 3}
      propertyPath: m_LocalPosition.x
      value: 0.75000495
      objectReference: {fileID: 0}
    - target: {fileID: 420096, guid: 36bdc02b23d9ca94d93bd715c0cca5c0, type: 3}
      propertyPath: m_LocalPosition.y
      value: 1.5000077
      objectReference: {fileID: 0}
    - target: {fileID: 420096, guid: 36bdc02b23d9ca94d93bd715c0cca5c0, type: 3}
      propertyPath: m_LocalPosition.z
      value: 1.8100257
      objectReference: {fileID: 0}
    - target: {fileID: 420096, guid: 36bdc02b23d9ca94d93bd715c0cca5c0, type: 3}
      propertyPath: m_LocalRotation.x
      value: -0.2931681
      objectReference: {fileID: 0}
    - target: {fileID: 420096, guid: 36bdc02b23d9ca94d93bd715c0cca5c0, type: 3}
      propertyPath: m_LocalRotation.y
      value: -0.47879428
      objectReference: {fileID: 0}
    - target: {fileID: 420096, guid: 36bdc02b23d9ca94d93bd715c0cca5c0, type: 3}
      propertyPath: m_LocalRotation.z
      value: -0.5174309
      objectReference: {fileID: 0}
    - target: {fileID: 420096, guid: 36bdc02b23d9ca94d93bd715c0cca5c0, type: 3}
      propertyPath: m_LocalRotation.w
      value: -0.6458126
      objectReference: {fileID: 0}
    - target: {fileID: 420096, guid: 36bdc02b23d9ca94d93bd715c0cca5c0, type: 3}
      propertyPath: m_RootOrder
      value: 1
      objectReference: {fileID: 0}
    - target: {fileID: 420096, guid: 36bdc02b23d9ca94d93bd715c0cca5c0, type: 3}
      propertyPath: m_LocalEulerAnglesHint.x
      value: -173.291
      objectReference: {fileID: 0}
    - target: {fileID: 420096, guid: 36bdc02b23d9ca94d93bd715c0cca5c0, type: 3}
      propertyPath: m_LocalEulerAnglesHint.y
      value: -111.849
      objectReference: {fileID: 0}
    - target: {fileID: 420096, guid: 36bdc02b23d9ca94d93bd715c0cca5c0, type: 3}
      propertyPath: m_LocalEulerAnglesHint.z
      value: -107.13699
      objectReference: {fileID: 0}
    - target: {fileID: 420096, guid: 36bdc02b23d9ca94d93bd715c0cca5c0, type: 3}
      propertyPath: m_LocalScale.y
      value: 1.6000015
      objectReference: {fileID: 0}
    - target: {fileID: 420096, guid: 36bdc02b23d9ca94d93bd715c0cca5c0, type: 3}
      propertyPath: m_LocalScale.z
      value: 1.6000012
      objectReference: {fileID: 0}
    - target: {fileID: 420096, guid: 36bdc02b23d9ca94d93bd715c0cca5c0, type: 3}
      propertyPath: m_LocalScale.x
      value: 1.6000004
      objectReference: {fileID: 0}
    - target: {fileID: 19870626, guid: 36bdc02b23d9ca94d93bd715c0cca5c0, type: 3}
      propertyPath: InitialModule.startSizeY.minMaxState
      value: 3
      objectReference: {fileID: 0}
    - target: {fileID: 19870626, guid: 36bdc02b23d9ca94d93bd715c0cca5c0, type: 3}
      propertyPath: InitialModule.startSizeZ.minMaxState
      value: 3
      objectReference: {fileID: 0}
    - target: {fileID: 19870626, guid: 36bdc02b23d9ca94d93bd715c0cca5c0, type: 3}
      propertyPath: InitialModule.startRotationX.minMaxState
      value: 3
      objectReference: {fileID: 0}
    - target: {fileID: 19870626, guid: 36bdc02b23d9ca94d93bd715c0cca5c0, type: 3}
      propertyPath: InitialModule.startRotationY.minMaxState
      value: 3
      objectReference: {fileID: 0}
    - target: {fileID: 19877600, guid: 36bdc02b23d9ca94d93bd715c0cca5c0, type: 3}
      propertyPath: InitialModule.startColor.minMaxState
      value: 4
      objectReference: {fileID: 0}
    - target: {fileID: 19877600, guid: 36bdc02b23d9ca94d93bd715c0cca5c0, type: 3}
      propertyPath: InitialModule.startColor.maxGradient.key2.r
      value: 1
      objectReference: {fileID: 0}
    - target: {fileID: 19877600, guid: 36bdc02b23d9ca94d93bd715c0cca5c0, type: 3}
      propertyPath: InitialModule.startColor.maxGradient.key2.g
      value: 0.8724341
      objectReference: {fileID: 0}
    - target: {fileID: 19877600, guid: 36bdc02b23d9ca94d93bd715c0cca5c0, type: 3}
      propertyPath: InitialModule.startColor.maxGradient.key2.b
      value: 0
      objectReference: {fileID: 0}
    - target: {fileID: 19877600, guid: 36bdc02b23d9ca94d93bd715c0cca5c0, type: 3}
      propertyPath: InitialModule.startColor.maxGradient.ctime1
      value: 10987
      objectReference: {fileID: 0}
    - target: {fileID: 19877600, guid: 36bdc02b23d9ca94d93bd715c0cca5c0, type: 3}
      propertyPath: InitialModule.startColor.maxGradient.ctime2
      value: 20624
      objectReference: {fileID: 0}
    - target: {fileID: 19877600, guid: 36bdc02b23d9ca94d93bd715c0cca5c0, type: 3}
      propertyPath: InitialModule.startColor.maxGradient.m_NumColorKeys
      value: 7
      objectReference: {fileID: 0}
    - target: {fileID: 19877600, guid: 36bdc02b23d9ca94d93bd715c0cca5c0, type: 3}
      propertyPath: InitialModule.startColor.maxGradient.key3.r
      value: 0.40279067
      objectReference: {fileID: 0}
    - target: {fileID: 19877600, guid: 36bdc02b23d9ca94d93bd715c0cca5c0, type: 3}
      propertyPath: InitialModule.startColor.maxGradient.key3.g
      value: 1
      objectReference: {fileID: 0}
    - target: {fileID: 19877600, guid: 36bdc02b23d9ca94d93bd715c0cca5c0, type: 3}
      propertyPath: InitialModule.startColor.maxGradient.key3.b
      value: 0
      objectReference: {fileID: 0}
    - target: {fileID: 19877600, guid: 36bdc02b23d9ca94d93bd715c0cca5c0, type: 3}
      propertyPath: InitialModule.startColor.maxGradient.ctime3
      value: 30262
      objectReference: {fileID: 0}
    - target: {fileID: 19877600, guid: 36bdc02b23d9ca94d93bd715c0cca5c0, type: 3}
      propertyPath: InitialModule.startColor.maxGradient.key4.r
      value: 0.10849059
      objectReference: {fileID: 0}
    - target: {fileID: 19877600, guid: 36bdc02b23d9ca94d93bd715c0cca5c0, type: 3}
      propertyPath: InitialModule.startColor.maxGradient.key4.g
      value: 0.784989
      objectReference: {fileID: 0}
    - target: {fileID: 19877600, guid: 36bdc02b23d9ca94d93bd715c0cca5c0, type: 3}
      propertyPath: InitialModule.startColor.maxGradient.key4.b
      value: 1
      objectReference: {fileID: 0}
    - target: {fileID: 19877600, guid: 36bdc02b23d9ca94d93bd715c0cca5c0, type: 3}
      propertyPath: InitialModule.startColor.maxGradient.ctime4
      value: 41056
      objectReference: {fileID: 0}
    - target: {fileID: 19877600, guid: 36bdc02b23d9ca94d93bd715c0cca5c0, type: 3}
      propertyPath: InitialModule.startColor.maxGradient.key5.r
      value: 0.21226418
      objectReference: {fileID: 0}
    - target: {fileID: 19877600, guid: 36bdc02b23d9ca94d93bd715c0cca5c0, type: 3}
      propertyPath: InitialModule.startColor.maxGradient.key5.g
      value: 0.29876047
      objectReference: {fileID: 0}
    - target: {fileID: 19877600, guid: 36bdc02b23d9ca94d93bd715c0cca5c0, type: 3}
      propertyPath: InitialModule.startColor.maxGradient.key5.b
      value: 1
      objectReference: {fileID: 0}
    - target: {fileID: 19877600, guid: 36bdc02b23d9ca94d93bd715c0cca5c0, type: 3}
      propertyPath: InitialModule.startColor.maxGradient.ctime5
      value: 51850
      objectReference: {fileID: 0}
    - target: {fileID: 19877600, guid: 36bdc02b23d9ca94d93bd715c0cca5c0, type: 3}
      propertyPath: InitialModule.startColor.maxGradient.key6.r
      value: 1
      objectReference: {fileID: 0}
    - target: {fileID: 19877600, guid: 36bdc02b23d9ca94d93bd715c0cca5c0, type: 3}
      propertyPath: InitialModule.startColor.maxGradient.key6.g
      value: 0
      objectReference: {fileID: 0}
    - target: {fileID: 19877600, guid: 36bdc02b23d9ca94d93bd715c0cca5c0, type: 3}
      propertyPath: InitialModule.startColor.maxGradient.key6.b
      value: 0.59836245
      objectReference: {fileID: 0}
    - target: {fileID: 19877600, guid: 36bdc02b23d9ca94d93bd715c0cca5c0, type: 3}
      propertyPath: InitialModule.startColor.maxGradient.ctime6
      value: 65535
      objectReference: {fileID: 0}
    - target: {fileID: 19877600, guid: 36bdc02b23d9ca94d93bd715c0cca5c0, type: 3}
      propertyPath: InitialModule.startColor.maxGradient.key0.r
      value: 1
      objectReference: {fileID: 0}
    - target: {fileID: 19877600, guid: 36bdc02b23d9ca94d93bd715c0cca5c0, type: 3}
      propertyPath: InitialModule.startColor.maxGradient.key0.g
      value: 0
      objectReference: {fileID: 0}
    - target: {fileID: 19877600, guid: 36bdc02b23d9ca94d93bd715c0cca5c0, type: 3}
      propertyPath: InitialModule.startColor.maxGradient.key0.b
      value: 0
      objectReference: {fileID: 0}
    - target: {fileID: 19877600, guid: 36bdc02b23d9ca94d93bd715c0cca5c0, type: 3}
      propertyPath: InitialModule.startColor.maxGradient.key7.r
      value: 1
      objectReference: {fileID: 0}
    - target: {fileID: 19877600, guid: 36bdc02b23d9ca94d93bd715c0cca5c0, type: 3}
      propertyPath: InitialModule.startColor.maxGradient.key7.g
      value: 1
      objectReference: {fileID: 0}
    - target: {fileID: 19877600, guid: 36bdc02b23d9ca94d93bd715c0cca5c0, type: 3}
      propertyPath: InitialModule.startColor.maxGradient.key7.b
      value: 1
      objectReference: {fileID: 0}
    - target: {fileID: 19877600, guid: 36bdc02b23d9ca94d93bd715c0cca5c0, type: 3}
      propertyPath: InitialModule.startColor.maxGradient.ctime7
      value: 65535
      objectReference: {fileID: 0}
    - target: {fileID: 19877600, guid: 36bdc02b23d9ca94d93bd715c0cca5c0, type: 3}
      propertyPath: InitialModule.startColor.maxGradient.key1.r
      value: 1
      objectReference: {fileID: 0}
    - target: {fileID: 19877600, guid: 36bdc02b23d9ca94d93bd715c0cca5c0, type: 3}
      propertyPath: InitialModule.startColor.maxGradient.key1.g
      value: 0.47070265
      objectReference: {fileID: 0}
    - target: {fileID: 19877600, guid: 36bdc02b23d9ca94d93bd715c0cca5c0, type: 3}
      propertyPath: InitialModule.startColor.maxGradient.key1.b
      value: 0
      objectReference: {fileID: 0}
    - target: {fileID: 19877600, guid: 36bdc02b23d9ca94d93bd715c0cca5c0, type: 3}
      propertyPath: InitialModule.startSize.scalar
      value: 0.1
      objectReference: {fileID: 0}
    - target: {fileID: 19877600, guid: 36bdc02b23d9ca94d93bd715c0cca5c0, type: 3}
      propertyPath: looping
      value: 0
      objectReference: {fileID: 0}
    - target: {fileID: 19877600, guid: 36bdc02b23d9ca94d93bd715c0cca5c0, type: 3}
      propertyPath: InitialModule.maxNumParticles
      value: 50
      objectReference: {fileID: 0}
    - target: {fileID: 19877600, guid: 36bdc02b23d9ca94d93bd715c0cca5c0, type: 3}
      propertyPath: playOnAwake
      value: 0
      objectReference: {fileID: 0}
    - target: {fileID: 19899280, guid: 36bdc02b23d9ca94d93bd715c0cca5c0, type: 3}
      propertyPath: InitialModule.startRotationX.minMaxState
      value: 3
      objectReference: {fileID: 0}
    - target: {fileID: 19899280, guid: 36bdc02b23d9ca94d93bd715c0cca5c0, type: 3}
      propertyPath: InitialModule.startRotationY.minMaxState
      value: 3
      objectReference: {fileID: 0}
    m_RemovedComponents: []
  m_SourcePrefab: {fileID: 100100000, guid: 36bdc02b23d9ca94d93bd715c0cca5c0, type: 3}
--- !u!4 &1330136509729922594 stripped
Transform:
  m_CorrespondingSourceObject: {fileID: 420096, guid: 36bdc02b23d9ca94d93bd715c0cca5c0,
    type: 3}
  m_PrefabInstance: {fileID: 1330136509730043682}
  m_PrefabAsset: {fileID: 0}
--- !u!1001 &1330136509911737286
PrefabInstance:
  m_ObjectHideFlags: 0
  serializedVersion: 2
  m_Modification:
    m_TransformParent: {fileID: 250251613931670505}
    m_Modifications:
    - target: {fileID: 127810, guid: 36bdc02b23d9ca94d93bd715c0cca5c0, type: 3}
      propertyPath: m_IsActive
      value: 0
      objectReference: {fileID: 0}
    - target: {fileID: 129898, guid: 36bdc02b23d9ca94d93bd715c0cca5c0, type: 3}
      propertyPath: m_Name
      value: ConfettiBlastRainbow
      objectReference: {fileID: 0}
    - target: {fileID: 420096, guid: 36bdc02b23d9ca94d93bd715c0cca5c0, type: 3}
      propertyPath: m_LocalPosition.x
      value: -1.5100042
      objectReference: {fileID: 0}
    - target: {fileID: 420096, guid: 36bdc02b23d9ca94d93bd715c0cca5c0, type: 3}
      propertyPath: m_LocalPosition.y
      value: 1.5800016
      objectReference: {fileID: 0}
    - target: {fileID: 420096, guid: 36bdc02b23d9ca94d93bd715c0cca5c0, type: 3}
      propertyPath: m_LocalPosition.z
      value: 2.0400033
      objectReference: {fileID: 0}
    - target: {fileID: 420096, guid: 36bdc02b23d9ca94d93bd715c0cca5c0, type: 3}
      propertyPath: m_LocalRotation.x
      value: -0.64148784
      objectReference: {fileID: 0}
    - target: {fileID: 420096, guid: 36bdc02b23d9ca94d93bd715c0cca5c0, type: 3}
      propertyPath: m_LocalRotation.y
      value: -0.52128476
      objectReference: {fileID: 0}
    - target: {fileID: 420096, guid: 36bdc02b23d9ca94d93bd715c0cca5c0, type: 3}
      propertyPath: m_LocalRotation.z
      value: 0.48091948
      objectReference: {fileID: 0}
    - target: {fileID: 420096, guid: 36bdc02b23d9ca94d93bd715c0cca5c0, type: 3}
      propertyPath: m_LocalRotation.w
      value: 0.2923561
      objectReference: {fileID: 0}
    - target: {fileID: 420096, guid: 36bdc02b23d9ca94d93bd715c0cca5c0, type: 3}
      propertyPath: m_RootOrder
      value: 0
      objectReference: {fileID: 0}
    - target: {fileID: 420096, guid: 36bdc02b23d9ca94d93bd715c0cca5c0, type: 3}
      propertyPath: m_LocalEulerAnglesHint.x
      value: -187.256
      objectReference: {fileID: 0}
    - target: {fileID: 420096, guid: 36bdc02b23d9ca94d93bd715c0cca5c0, type: 3}
      propertyPath: m_LocalEulerAnglesHint.y
      value: 68.31799
      objectReference: {fileID: 0}
    - target: {fileID: 420096, guid: 36bdc02b23d9ca94d93bd715c0cca5c0, type: 3}
      propertyPath: m_LocalEulerAnglesHint.z
      value: -73.26898
      objectReference: {fileID: 0}
    - target: {fileID: 420096, guid: 36bdc02b23d9ca94d93bd715c0cca5c0, type: 3}
      propertyPath: m_LocalScale.y
      value: 1.6000015
      objectReference: {fileID: 0}
    - target: {fileID: 420096, guid: 36bdc02b23d9ca94d93bd715c0cca5c0, type: 3}
      propertyPath: m_LocalScale.z
      value: 1.6000018
      objectReference: {fileID: 0}
    - target: {fileID: 420096, guid: 36bdc02b23d9ca94d93bd715c0cca5c0, type: 3}
      propertyPath: m_LocalScale.x
      value: 1.6000004
      objectReference: {fileID: 0}
    - target: {fileID: 19870626, guid: 36bdc02b23d9ca94d93bd715c0cca5c0, type: 3}
      propertyPath: InitialModule.startSizeY.minMaxState
      value: 3
      objectReference: {fileID: 0}
    - target: {fileID: 19870626, guid: 36bdc02b23d9ca94d93bd715c0cca5c0, type: 3}
      propertyPath: InitialModule.startSizeZ.minMaxState
      value: 3
      objectReference: {fileID: 0}
    - target: {fileID: 19870626, guid: 36bdc02b23d9ca94d93bd715c0cca5c0, type: 3}
      propertyPath: InitialModule.startRotationX.minMaxState
      value: 3
      objectReference: {fileID: 0}
    - target: {fileID: 19870626, guid: 36bdc02b23d9ca94d93bd715c0cca5c0, type: 3}
      propertyPath: InitialModule.startRotationY.minMaxState
      value: 3
      objectReference: {fileID: 0}
    - target: {fileID: 19877600, guid: 36bdc02b23d9ca94d93bd715c0cca5c0, type: 3}
      propertyPath: InitialModule.startColor.minMaxState
      value: 4
      objectReference: {fileID: 0}
    - target: {fileID: 19877600, guid: 36bdc02b23d9ca94d93bd715c0cca5c0, type: 3}
      propertyPath: InitialModule.startColor.maxGradient.key2.r
      value: 1
      objectReference: {fileID: 0}
    - target: {fileID: 19877600, guid: 36bdc02b23d9ca94d93bd715c0cca5c0, type: 3}
      propertyPath: InitialModule.startColor.maxGradient.key2.g
      value: 0.8724341
      objectReference: {fileID: 0}
    - target: {fileID: 19877600, guid: 36bdc02b23d9ca94d93bd715c0cca5c0, type: 3}
      propertyPath: InitialModule.startColor.maxGradient.key2.b
      value: 0
      objectReference: {fileID: 0}
    - target: {fileID: 19877600, guid: 36bdc02b23d9ca94d93bd715c0cca5c0, type: 3}
      propertyPath: InitialModule.startColor.maxGradient.ctime1
      value: 10987
      objectReference: {fileID: 0}
    - target: {fileID: 19877600, guid: 36bdc02b23d9ca94d93bd715c0cca5c0, type: 3}
      propertyPath: InitialModule.startColor.maxGradient.ctime2
      value: 20624
      objectReference: {fileID: 0}
    - target: {fileID: 19877600, guid: 36bdc02b23d9ca94d93bd715c0cca5c0, type: 3}
      propertyPath: InitialModule.startColor.maxGradient.m_NumColorKeys
      value: 7
      objectReference: {fileID: 0}
    - target: {fileID: 19877600, guid: 36bdc02b23d9ca94d93bd715c0cca5c0, type: 3}
      propertyPath: InitialModule.startColor.maxGradient.key3.r
      value: 0.40279067
      objectReference: {fileID: 0}
    - target: {fileID: 19877600, guid: 36bdc02b23d9ca94d93bd715c0cca5c0, type: 3}
      propertyPath: InitialModule.startColor.maxGradient.key3.g
      value: 1
      objectReference: {fileID: 0}
    - target: {fileID: 19877600, guid: 36bdc02b23d9ca94d93bd715c0cca5c0, type: 3}
      propertyPath: InitialModule.startColor.maxGradient.key3.b
      value: 0
      objectReference: {fileID: 0}
    - target: {fileID: 19877600, guid: 36bdc02b23d9ca94d93bd715c0cca5c0, type: 3}
      propertyPath: InitialModule.startColor.maxGradient.ctime3
      value: 30262
      objectReference: {fileID: 0}
    - target: {fileID: 19877600, guid: 36bdc02b23d9ca94d93bd715c0cca5c0, type: 3}
      propertyPath: InitialModule.startColor.maxGradient.key4.r
      value: 0.10849059
      objectReference: {fileID: 0}
    - target: {fileID: 19877600, guid: 36bdc02b23d9ca94d93bd715c0cca5c0, type: 3}
      propertyPath: InitialModule.startColor.maxGradient.key4.g
      value: 0.784989
      objectReference: {fileID: 0}
    - target: {fileID: 19877600, guid: 36bdc02b23d9ca94d93bd715c0cca5c0, type: 3}
      propertyPath: InitialModule.startColor.maxGradient.key4.b
      value: 1
      objectReference: {fileID: 0}
    - target: {fileID: 19877600, guid: 36bdc02b23d9ca94d93bd715c0cca5c0, type: 3}
      propertyPath: InitialModule.startColor.maxGradient.ctime4
      value: 41056
      objectReference: {fileID: 0}
    - target: {fileID: 19877600, guid: 36bdc02b23d9ca94d93bd715c0cca5c0, type: 3}
      propertyPath: InitialModule.startColor.maxGradient.key5.r
      value: 0.21226418
      objectReference: {fileID: 0}
    - target: {fileID: 19877600, guid: 36bdc02b23d9ca94d93bd715c0cca5c0, type: 3}
      propertyPath: InitialModule.startColor.maxGradient.key5.g
      value: 0.29876047
      objectReference: {fileID: 0}
    - target: {fileID: 19877600, guid: 36bdc02b23d9ca94d93bd715c0cca5c0, type: 3}
      propertyPath: InitialModule.startColor.maxGradient.key5.b
      value: 1
      objectReference: {fileID: 0}
    - target: {fileID: 19877600, guid: 36bdc02b23d9ca94d93bd715c0cca5c0, type: 3}
      propertyPath: InitialModule.startColor.maxGradient.ctime5
      value: 51850
      objectReference: {fileID: 0}
    - target: {fileID: 19877600, guid: 36bdc02b23d9ca94d93bd715c0cca5c0, type: 3}
      propertyPath: InitialModule.startColor.maxGradient.key6.r
      value: 1
      objectReference: {fileID: 0}
    - target: {fileID: 19877600, guid: 36bdc02b23d9ca94d93bd715c0cca5c0, type: 3}
      propertyPath: InitialModule.startColor.maxGradient.key6.g
      value: 0
      objectReference: {fileID: 0}
    - target: {fileID: 19877600, guid: 36bdc02b23d9ca94d93bd715c0cca5c0, type: 3}
      propertyPath: InitialModule.startColor.maxGradient.key6.b
      value: 0.59836245
      objectReference: {fileID: 0}
    - target: {fileID: 19877600, guid: 36bdc02b23d9ca94d93bd715c0cca5c0, type: 3}
      propertyPath: InitialModule.startColor.maxGradient.ctime6
      value: 65535
      objectReference: {fileID: 0}
    - target: {fileID: 19877600, guid: 36bdc02b23d9ca94d93bd715c0cca5c0, type: 3}
      propertyPath: InitialModule.startColor.maxGradient.key0.r
      value: 1
      objectReference: {fileID: 0}
    - target: {fileID: 19877600, guid: 36bdc02b23d9ca94d93bd715c0cca5c0, type: 3}
      propertyPath: InitialModule.startColor.maxGradient.key0.g
      value: 0
      objectReference: {fileID: 0}
    - target: {fileID: 19877600, guid: 36bdc02b23d9ca94d93bd715c0cca5c0, type: 3}
      propertyPath: InitialModule.startColor.maxGradient.key0.b
      value: 0
      objectReference: {fileID: 0}
    - target: {fileID: 19877600, guid: 36bdc02b23d9ca94d93bd715c0cca5c0, type: 3}
      propertyPath: InitialModule.startColor.maxGradient.key7.r
      value: 1
      objectReference: {fileID: 0}
    - target: {fileID: 19877600, guid: 36bdc02b23d9ca94d93bd715c0cca5c0, type: 3}
      propertyPath: InitialModule.startColor.maxGradient.key7.g
      value: 1
      objectReference: {fileID: 0}
    - target: {fileID: 19877600, guid: 36bdc02b23d9ca94d93bd715c0cca5c0, type: 3}
      propertyPath: InitialModule.startColor.maxGradient.key7.b
      value: 1
      objectReference: {fileID: 0}
    - target: {fileID: 19877600, guid: 36bdc02b23d9ca94d93bd715c0cca5c0, type: 3}
      propertyPath: InitialModule.startColor.maxGradient.ctime7
      value: 65535
      objectReference: {fileID: 0}
    - target: {fileID: 19877600, guid: 36bdc02b23d9ca94d93bd715c0cca5c0, type: 3}
      propertyPath: InitialModule.startColor.maxGradient.key1.r
      value: 1
      objectReference: {fileID: 0}
    - target: {fileID: 19877600, guid: 36bdc02b23d9ca94d93bd715c0cca5c0, type: 3}
      propertyPath: InitialModule.startColor.maxGradient.key1.g
      value: 0.47070265
      objectReference: {fileID: 0}
    - target: {fileID: 19877600, guid: 36bdc02b23d9ca94d93bd715c0cca5c0, type: 3}
      propertyPath: InitialModule.startColor.maxGradient.key1.b
      value: 0
      objectReference: {fileID: 0}
    - target: {fileID: 19877600, guid: 36bdc02b23d9ca94d93bd715c0cca5c0, type: 3}
      propertyPath: InitialModule.startSize.scalar
      value: 0.1
      objectReference: {fileID: 0}
    - target: {fileID: 19877600, guid: 36bdc02b23d9ca94d93bd715c0cca5c0, type: 3}
      propertyPath: looping
      value: 0
      objectReference: {fileID: 0}
    - target: {fileID: 19877600, guid: 36bdc02b23d9ca94d93bd715c0cca5c0, type: 3}
      propertyPath: InitialModule.maxNumParticles
      value: 50
      objectReference: {fileID: 0}
    - target: {fileID: 19877600, guid: 36bdc02b23d9ca94d93bd715c0cca5c0, type: 3}
      propertyPath: playOnAwake
      value: 0
      objectReference: {fileID: 0}
    - target: {fileID: 19899280, guid: 36bdc02b23d9ca94d93bd715c0cca5c0, type: 3}
      propertyPath: InitialModule.startRotationX.minMaxState
      value: 3
      objectReference: {fileID: 0}
    - target: {fileID: 19899280, guid: 36bdc02b23d9ca94d93bd715c0cca5c0, type: 3}
      propertyPath: InitialModule.startRotationY.minMaxState
      value: 3
      objectReference: {fileID: 0}
    m_RemovedComponents: []
  m_SourcePrefab: {fileID: 100100000, guid: 36bdc02b23d9ca94d93bd715c0cca5c0, type: 3}
--- !u!4 &1330136509912140486 stripped
Transform:
  m_CorrespondingSourceObject: {fileID: 420096, guid: 36bdc02b23d9ca94d93bd715c0cca5c0,
    type: 3}
  m_PrefabInstance: {fileID: 1330136509911737286}
  m_PrefabAsset: {fileID: 0}
