mtllib Cornice.mtl
o Cornice.obj
v -2.573939 0.468475 -0.070233
v -2.573939 0.468475 -0.070233
v -2.573939 0.468475 -0.070233
v -2.573939 0.468475 -0.070233
v 2.573939 0.468475 -0.070233
v 2.573939 0.468475 -0.070233
v 2.573939 0.468475 -0.070233
v 2.573939 0.468475 -0.070233
v -2.573939 0.531525 -0.070233
v -2.573939 0.531525 -0.070233
v -2.573939 0.531525 -0.070233
v -2.573939 0.531525 -0.070233
v -2.573939 0.531525 -0.070233
v 2.573939 0.531525 -0.070233
v 2.573939 0.531525 -0.070233
v 2.573939 0.531525 -0.070233
v 2.573939 0.531525 -0.070233
v 2.573939 0.531525 -0.070233
v -2.573939 0.468475 -0.054775
v -2.573939 0.468475 -0.054775
v -2.573939 0.468475 -0.054775
v -2.573939 0.468475 -0.054775
v 2.573939 0.468475 -0.054775
v 2.573939 0.468475 -0.054775
v 2.573939 0.468475 -0.054775
v 2.573939 0.468475 -0.054775
v -2.573939 0.531525 -0.054775
v -2.573939 0.531525 -0.054775
v -2.573939 0.531525 -0.054775
v -2.573939 0.531525 -0.054775
v -2.573939 0.531525 -0.054775
v 2.573939 0.531525 -0.054775
v 2.573939 0.531525 -0.054775
v 2.573939 0.531525 -0.054775
v 2.573939 0.531525 -0.054775
v 2.573939 0.531525 -0.054775
v 2.573939 0.531525 -0.136091
v 2.573939 0.531525 -0.136091
v 2.573939 0.531525 -0.136091
v 2.573939 0.531525 -0.136091
v 2.573939 0.468475 -0.136091
v 2.573939 0.468475 -0.136091
v 2.573939 0.468475 -0.136091
v -2.573939 0.468475 -0.136091
v -2.573939 0.468475 -0.136091
v -2.573939 0.468475 -0.136091
v -2.573939 0.531525 -0.136091
v -2.573939 0.531525 -0.136091
v -2.573939 0.531525 -0.136091
v -2.573939 0.531525 -0.136091
v -2.573939 0.611101 -0.070233
v -2.573939 0.611101 -0.070233
v -2.573939 0.611101 -0.070233
v -2.573939 0.611101 -0.070233
v -2.573939 0.611101 -0.070233
v 2.573939 0.611101 -0.070233
v 2.573939 0.611101 -0.070233
v 2.573939 0.611101 -0.070233
v 2.573939 0.611101 -0.070233
v 2.573939 0.611101 -0.070233
v 2.573939 0.611101 -0.136091
v 2.573939 0.611101 -0.136091
v 2.573939 0.611101 -0.136091
v 2.573939 0.611101 -0.136091
v -2.573939 0.611101 -0.136091
v -2.573939 0.611101 -0.136091
v -2.573939 0.611101 -0.136091
v -2.573939 0.611101 -0.136091
v -2.573939 0.675118 -0.070233
v -2.573939 0.675118 -0.070233
v -2.573939 0.675118 -0.070233
v -2.573939 0.675118 -0.070233
v 2.573939 0.675118 -0.070233
v 2.573939 0.675118 -0.070233
v 2.573939 0.675118 -0.070233
v 2.573939 0.675118 -0.070233
v 2.573939 0.675118 -0.136091
v 2.573939 0.675118 -0.136091
v 2.573939 0.675118 -0.136091
v -2.573939 0.675118 -0.136091
v -2.573939 0.675118 -0.136091
v -2.573939 0.675118 -0.136091
v -2.573939 0.611101 0.177278
v -2.573939 0.611101 0.177278
v -2.573939 0.611101 0.177278
v -2.573939 0.611101 0.177278
v -2.573939 0.611101 0.177278
v 2.573939 0.611101 0.177278
v 2.573939 0.611101 0.177278
v 2.573939 0.611101 0.177278
v 2.573939 0.611101 0.177278
v 2.573939 0.611101 0.177278
v 2.573939 0.675118 0.177278
v 2.573939 0.675118 0.177278
v 2.573939 0.675118 0.177278
v 2.573939 0.675118 0.177278
v -2.573939 0.675118 0.177278
v -2.573939 0.675118 0.177278
v -2.573939 0.675118 0.177278
v -2.573939 0.675118 0.177278
v -2.573939 0.611101 0.205870
v -2.573939 0.611101 0.205870
v -2.573939 0.611101 0.205870
v -2.573939 0.611101 0.205870
v -2.573939 0.611101 0.205870
v 2.573939 0.611101 0.205870
v 2.573939 0.611101 0.205870
v 2.573939 0.611101 0.205870
v 2.573939 0.611101 0.205870
v 2.573939 0.611101 0.205870
v 2.573939 0.675118 0.205870
v 2.573939 0.675118 0.205870
v 2.573939 0.675118 0.205870
v 2.573939 0.675118 0.205870
v -2.573939 0.675118 0.205870
v -2.573939 0.675118 0.205870
v -2.573939 0.675118 0.205870
v -2.573939 0.675118 0.205870
v -2.573939 0.513041 0.177278
v -2.573939 0.513041 0.177278
v -2.573939 0.513041 0.177278
v -2.573939 0.513041 0.177278
v -2.573939 0.513041 0.177278
v 2.573939 0.513041 0.177278
v 2.573939 0.513041 0.177278
v 2.573939 0.513041 0.177278
v 2.573939 0.513041 0.177278
v 2.573939 0.513041 0.177278
v 2.573939 0.513041 0.205870
v 2.573939 0.513041 0.205870
v 2.573939 0.513041 0.205870
v 2.573939 0.513041 0.205870
v 2.573939 0.513041 0.205870
v -2.573939 0.513041 0.205870
v -2.573939 0.513041 0.205870
v -2.573939 0.513041 0.205870
v -2.573939 0.513041 0.205870
v -2.573939 0.513041 0.205870
v -2.573939 0.472072 0.177278
v -2.573939 0.472072 0.177278
v -2.573939 0.472072 0.177278
v -2.573939 0.472072 0.177278
v 2.573939 0.472072 0.177278
v 2.573939 0.472072 0.177278
v 2.573939 0.472072 0.177278
v 2.573939 0.472072 0.177278
v 2.573939 0.472072 0.205870
v 2.573939 0.472072 0.205870
v 2.573939 0.472072 0.205870
v 2.573939 0.472072 0.205870
v -2.573939 0.472072 0.205870
v -2.573939 0.472072 0.205870
v -2.573939 0.472072 0.205870
v -2.573939 0.472072 0.205870
v -2.573939 0.513041 0.164985
v -2.573939 0.513041 0.164985
v -2.573939 0.513041 0.164985
v -2.573939 0.513041 0.164985
v -2.573939 0.513041 0.164985
v 2.573939 0.513041 0.164985
v 2.573939 0.513041 0.164985
v 2.573939 0.513041 0.164985
v 2.573939 0.513041 0.164985
v 2.573939 0.513041 0.164985
v 2.573939 0.472072 0.164985
v 2.573939 0.472072 0.164985
v 2.573939 0.472072 0.164985
v 2.573939 0.472072 0.164985
v -2.573939 0.472072 0.164985
v -2.573939 0.472072 0.164985
v -2.573939 0.472072 0.164985
v -2.573939 0.472072 0.164985
v -2.573939 0.513041 0.218163
v -2.573939 0.513041 0.218163
v -2.573939 0.513041 0.218163
v -2.573939 0.513041 0.218163
v -2.573939 0.513041 0.218163
v 2.573939 0.513041 0.218163
v 2.573939 0.513041 0.218163
v 2.573939 0.513041 0.218163
v 2.573939 0.513041 0.218163
v 2.573939 0.513041 0.218163
v -2.573939 0.472072 0.218163
v -2.573939 0.472072 0.218163
v -2.573939 0.472072 0.218163
v -2.573939 0.472072 0.218163
v 2.573939 0.472072 0.218163
v 2.573939 0.472072 0.218163
v 2.573939 0.472072 0.218163
v 2.573939 0.472072 0.218163
v -2.573939 0.513041 0.148594
v -2.573939 0.513041 0.148594
v -2.573939 0.513041 0.148594
v -2.573939 0.513041 0.148594
v 2.573939 0.513041 0.148594
v 2.573939 0.513041 0.148594
v 2.573939 0.513041 0.148594
v 2.573939 0.513041 0.148594
v 2.573939 0.472072 0.148594
v 2.573939 0.472072 0.148594
v 2.573939 0.472072 0.148594
v -2.573939 0.472072 0.148594
v -2.573939 0.472072 0.148594
v -2.573939 0.472072 0.148594
v -2.573939 0.513041 0.234554
v -2.573939 0.513041 0.234554
v -2.573939 0.513041 0.234554
v -2.573939 0.513041 0.234554
v 2.573939 0.513041 0.234554
v 2.573939 0.513041 0.234554
v 2.573939 0.513041 0.234554
v 2.573939 0.513041 0.234554
v -2.573939 0.472072 0.234554
v -2.573939 0.472072 0.234554
v -2.573939 0.472072 0.234554
v 2.573939 0.472072 0.234554
v 2.573939 0.472072 0.234554
v 2.573939 0.472072 0.234554
v -2.573939 0.525326 0.164985
v -2.573939 0.525326 0.164985
v -2.573939 0.525326 0.164985
v 2.573939 0.525326 0.164985
v 2.573939 0.525326 0.164985
v 2.573939 0.525326 0.164985
v 2.573939 0.525326 0.148594
v 2.573939 0.525326 0.148594
v 2.573939 0.525326 0.148594
v -2.573939 0.525326 0.148594
v -2.573939 0.525326 0.148594
v -2.573939 0.525326 0.148594
v -2.573939 0.525326 0.218163
v -2.573939 0.525326 0.218163
v -2.573939 0.525326 0.218163
v 2.573939 0.525326 0.218163
v 2.573939 0.525326 0.218163
v 2.573939 0.525326 0.218163
v -2.573939 0.525326 0.234554
v -2.573939 0.525326 0.234554
v -2.573939 0.525326 0.234554
v 2.573939 0.525326 0.234554
v 2.573939 0.525326 0.234554
v 2.573939 0.525326 0.234554
v 2.573939 0.468475 -0.032763
v 2.573939 0.468475 -0.032763
v 2.573939 0.468475 -0.032763
v 2.573939 0.531525 -0.032763
v 2.573939 0.531525 -0.032763
v 2.573939 0.531525 -0.032763
v 2.573939 0.531525 -0.032763
v -2.573939 0.531525 -0.032763
v -2.573939 0.531525 -0.032763
v -2.573939 0.531525 -0.032763
v -2.573939 0.531525 -0.032763
v -2.573939 0.468475 -0.032763
v -2.573939 0.468475 -0.032763
v -2.573939 0.468475 -0.032763
v 2.573939 0.542523 -0.054775
v 2.573939 0.542523 -0.054775
v 2.573939 0.542523 -0.054775
v -2.573939 0.542523 -0.054775
v -2.573939 0.542523 -0.054775
v -2.573939 0.542523 -0.054775
v -2.573939 0.542523 -0.032763
v -2.573939 0.542523 -0.032763
v -2.573939 0.542523 -0.032763
v 2.573939 0.542523 -0.032763
v 2.573939 0.542523 -0.032763
v 2.573939 0.542523 -0.032763
v -2.573939 0.611101 0.281808
v -2.573939 0.611101 0.281808
v -2.573939 0.611101 0.281808
v -2.573939 0.611101 0.281808
v 2.573939 0.611101 0.281808
v 2.573939 0.611101 0.281808
v 2.573939 0.611101 0.281808
v 2.573939 0.611101 0.281808
v 2.573939 0.675118 0.281808
v 2.573939 0.675118 0.281808
v 2.573939 0.675118 0.281808
v 2.573939 0.675118 0.281808
v -2.573939 0.675118 0.281808
v -2.573939 0.675118 0.281808
v -2.573939 0.675118 0.281808
v -2.573939 0.675118 0.281808
v -2.573939 0.609217 0.291153
v -2.573939 0.609217 0.291153
v -2.573939 0.609217 0.291153
v -2.573939 0.609217 0.291153
v 2.573939 0.609217 0.291153
v 2.573939 0.609217 0.291153
v 2.573939 0.609217 0.291153
v 2.573939 0.609217 0.291153
v 2.573939 0.672443 0.301187
v 2.573939 0.672443 0.301187
v 2.573939 0.672443 0.301187
v 2.573939 0.672443 0.301187
v -2.573939 0.672443 0.301187
v -2.573939 0.672443 0.301187
v -2.573939 0.672443 0.301187
v -2.573939 0.672443 0.301187
v -2.573939 0.604063 0.297883
v -2.573939 0.604063 0.297883
v 2.573939 0.604063 0.297883
v 2.573939 0.604063 0.297883
v 2.573939 0.661146 0.326863
v 2.573939 0.661146 0.326863
v -2.573939 0.661146 0.326863
v -2.573939 0.661146 0.326863
v -2.573939 0.597857 0.300238
v -2.573939 0.597857 0.300238
v 2.573939 0.597857 0.300238
v 2.573939 0.597857 0.300238
v 2.573939 0.640002 0.348427
v 2.573939 0.640002 0.348427
v -2.573939 0.640002 0.348427
v -2.573939 0.640002 0.348427
v -2.573939 0.593665 0.299890
v -2.573939 0.593665 0.299890
v 2.573939 0.593665 0.299890
v 2.573939 0.593665 0.299890
v 2.573939 0.617155 0.359441
v 2.573939 0.617155 0.359441
v -2.573939 0.617155 0.359441
v -2.573939 0.617155 0.359441
v -2.573939 0.583349 0.300204
v -2.573939 0.583349 0.300204
v 2.573939 0.583349 0.300204
v 2.573939 0.583349 0.300204
v 2.573939 0.591422 0.363710
v 2.573939 0.591422 0.363710
v -2.573939 0.591422 0.363710
v -2.573939 0.591422 0.363710
v -2.573939 0.579629 0.297667
v -2.573939 0.579629 0.297667
v 2.573939 0.579629 0.297667
v 2.573939 0.579629 0.297667
v 2.573939 0.566665 0.360358
v 2.573939 0.566665 0.360358
v -2.573939 0.566665 0.360358
v -2.573939 0.566665 0.360358
v -2.573939 0.570152 0.292323
v -2.573939 0.570152 0.292323
v -2.573939 0.570152 0.292323
v -2.573939 0.570152 0.292323
v 2.573939 0.570152 0.292323
v 2.573939 0.570152 0.292323
v 2.573939 0.570152 0.292323
v 2.573939 0.570152 0.292323
v 2.573939 0.543167 0.350375
v 2.573939 0.543167 0.350375
v 2.573939 0.543167 0.350375
v 2.573939 0.543167 0.350375
v -2.573939 0.543167 0.350375
v -2.573939 0.543167 0.350375
v -2.573939 0.543167 0.350375
v -2.573939 0.543167 0.350375
v -2.573939 0.548651 0.285414
v -2.573939 0.548651 0.285414
v 2.573939 0.548651 0.285414
v 2.573939 0.548651 0.285414
v 2.573939 0.529886 0.346619
v 2.573939 0.529886 0.346619
v -2.573939 0.529886 0.346619
v -2.573939 0.529886 0.346619
v -2.573939 0.545171 0.284347
v -2.573939 0.545171 0.284347
v 2.573939 0.545171 0.284347
v 2.573939 0.545171 0.284347
v 2.573939 0.526406 0.345552
v 2.573939 0.526406 0.345552
v -2.573939 0.526406 0.345552
v -2.573939 0.526406 0.345552
v -2.573939 0.528660 0.281889
v -2.573939 0.528660 0.281889
v -2.573939 0.528660 0.281889
v -2.573939 0.528660 0.281889
v 2.573939 0.528660 0.281889
v 2.573939 0.528660 0.281889
v 2.573939 0.528660 0.281889
v 2.573939 0.528660 0.281889
v 2.573939 0.521223 0.345473
v 2.573939 0.521223 0.345473
v 2.573939 0.521223 0.345473
v 2.573939 0.521223 0.345473
v -2.573939 0.521223 0.345473
v -2.573939 0.521223 0.345473
v -2.573939 0.521223 0.345473
v -2.573939 0.521223 0.345473
v -2.573939 0.504780 0.282867
v -2.573939 0.504780 0.282867
v -2.573939 0.504780 0.282867
v -2.573939 0.504780 0.282867
v 2.573939 0.504780 0.282867
v 2.573939 0.504780 0.282867
v 2.573939 0.504780 0.282867
v 2.573939 0.504780 0.282867
v 2.573939 0.508762 0.346760
v 2.573939 0.508762 0.346760
v 2.573939 0.508762 0.346760
v -2.573939 0.508762 0.346760
v -2.573939 0.508762 0.346760
v -2.573939 0.508762 0.346760
v -2.573939 0.486602 0.284000
v -2.573939 0.486602 0.284000
v -2.573939 0.486602 0.284000
v -2.573939 0.486602 0.284000
v 2.573939 0.486602 0.284000
v 2.573939 0.486602 0.284000
v 2.573939 0.486602 0.284000
v 2.573939 0.486602 0.284000
v 2.573939 0.490584 0.347893
v 2.573939 0.490584 0.347893
v 2.573939 0.490584 0.347893
v -2.573939 0.490584 0.347893
v -2.573939 0.490584 0.347893
v -2.573939 0.490584 0.347893
v -2.573939 0.461591 0.288218
v -2.573939 0.461591 0.288218
v -2.573939 0.461591 0.288218
v -2.573939 0.461591 0.288218
v 2.573939 0.461591 0.288218
v 2.573939 0.461591 0.288218
v 2.573939 0.461591 0.288218
v 2.573939 0.461591 0.288218
v 2.573939 0.472743 0.351256
v 2.573939 0.472743 0.351256
v 2.573939 0.472743 0.351256
v 2.573939 0.472743 0.351256
v -2.573939 0.472743 0.351256
v -2.573939 0.472743 0.351256
v -2.573939 0.472743 0.351256
v -2.573939 0.472743 0.351256
v -2.573939 0.446610 0.292898
v -2.573939 0.446610 0.292898
v -2.573939 0.446610 0.292898
v -2.573939 0.446610 0.292898
v 2.573939 0.446610 0.292898
v 2.573939 0.446610 0.292898
v 2.573939 0.446610 0.292898
v 2.573939 0.446610 0.292898
v 2.573939 0.467111 0.353544
v 2.573939 0.467111 0.353544
v 2.573939 0.467111 0.353544
v 2.573939 0.467111 0.353544
v -2.573939 0.467111 0.353544
v -2.573939 0.467111 0.353544
v -2.573939 0.467111 0.353544
v -2.573939 0.467111 0.353544
v -2.573939 0.427222 0.301430
v -2.573939 0.427222 0.301430
v 2.573939 0.427222 0.301430
v 2.573939 0.427222 0.301430
v 2.573939 0.453410 0.359846
v 2.573939 0.453410 0.359846
v -2.573939 0.453410 0.359846
v -2.573939 0.453410 0.359846
v -2.573939 0.403196 0.319687
v -2.573939 0.403196 0.319687
v 2.573939 0.403196 0.319687
v 2.573939 0.403196 0.319687
v 2.573939 0.443794 0.369184
v 2.573939 0.443794 0.369184
v -2.573939 0.443794 0.369184
v -2.573939 0.443794 0.369184
v -2.573939 0.393841 0.322667
v -2.573939 0.393841 0.322667
v 2.573939 0.393841 0.322667
v 2.573939 0.393841 0.322667
v 2.573939 0.420073 0.381063
v 2.573939 0.420073 0.381063
v -2.573939 0.420073 0.381063
v -2.573939 0.420073 0.381063
v -2.573939 0.387211 0.320826
v -2.573939 0.387211 0.320826
v 2.573939 0.387211 0.320826
v 2.573939 0.387211 0.320826
v 2.573939 0.390487 0.384759
v 2.573939 0.390487 0.384759
v -2.573939 0.390487 0.384759
v -2.573939 0.390487 0.384759
v -2.573939 0.363033 0.321128
v -2.573939 0.363033 0.321128
v 2.573939 0.363033 0.321128
v 2.573939 0.363033 0.321128
v 2.573939 0.363894 0.385140
v 2.573939 0.363894 0.385140
v -2.573939 0.363894 0.385140
v -2.573939 0.363894 0.385140
v -2.573939 0.298476 0.310860
v -2.573939 0.298476 0.310860
v 2.573939 0.298476 0.310860
v 2.573939 0.298476 0.310860
v 2.573939 0.343502 0.384039
v 2.573939 0.343502 0.384039
v -2.573939 0.343502 0.384039
v -2.573939 0.343502 0.384039
v -2.573939 0.296148 0.318346
v -2.573939 0.296148 0.318346
v -2.573939 0.296148 0.318346
v 2.573939 0.296148 0.318346
v 2.573939 0.296148 0.318346
v 2.573939 0.296148 0.318346
v 2.573939 0.295280 0.326938
v 2.573939 0.308452 0.356539
v 2.573939 0.295280 0.326938
v -2.573939 0.295280 0.326938
v -2.573939 0.295280 0.326938
v -2.573939 0.308452 0.356539
v -2.573939 0.509938 0.365625
v 2.573939 0.509938 0.365625
v -2.573939 0.491760 0.366758
v 2.573939 0.491760 0.366758
vn 0.000000 -1.000000 0.000000
vn -1.000000 0.000000 0.000000
vn -1.000000 0.000000 0.000000
vn 0.000000 -1.000000 0.000000
vn 1.000000 0.000000 0.000000
vn 0.000000 -1.000000 0.000000
vn 0.000000 -1.000000 0.000000
vn 1.000000 0.000000 0.000000
vn -1.000000 0.000000 0.000000
vn 0.000000 1.000000 0.000000
vn 0.000000 0.000000 1.000000
vn -1.000000 0.000000 0.000000
vn -1.000000 0.000000 0.000000
vn 1.000000 0.000000 0.000000
vn 0.000000 1.000000 0.000000
vn 0.000000 0.000000 1.000000
vn 1.000000 0.000000 0.000000
vn 1.000000 0.000000 0.000000
vn -1.000000 0.000000 0.000000
vn 0.000000 -1.000000 0.000000
vn 0.000000 -1.000000 0.000000
vn -1.000000 0.000000 0.000000
vn 1.000000 0.000000 0.000000
vn 0.000000 -1.000000 0.000000
vn 0.000000 -1.000000 0.000000
vn 1.000000 0.000000 0.000000
vn 0.000000 1.000000 0.000000
vn -1.000000 0.000000 0.000000
vn -1.000000 0.000000 0.000000
vn -1.000000 0.000000 0.000000
vn 0.000000 0.000000 -1.000000
vn 1.000000 0.000000 0.000000
vn 0.000000 1.000000 0.000000
vn 0.000000 0.000000 -1.000000
vn 1.000000 0.000000 0.000000
vn 1.000000 0.000000 0.000000
vn 0.000000 0.000000 -1.000000
vn 0.000000 0.000000 -1.000000
vn 1.000000 0.000000 0.000000
vn 1.000000 0.000000 0.000000
vn 0.000000 0.000000 -1.000000
vn 0.000000 -1.000000 0.000000
vn 1.000000 0.000000 0.000000
vn 0.000000 0.000000 -1.000000
vn -1.000000 0.000000 0.000000
vn 0.000000 -1.000000 0.000000
vn 0.000000 0.000000 -1.000000
vn 0.000000 0.000000 -1.000000
vn -1.000000 0.000000 0.000000
vn -1.000000 0.000000 0.000000
vn 0.000000 0.000000 1.000000
vn -1.000000 0.000000 0.000000
vn -1.000000 0.000000 0.000000
vn -1.000000 0.000000 0.000000
vn 0.000000 -1.000000 0.000000
vn 0.000000 0.000000 1.000000
vn 1.000000 0.000000 0.000000
vn 1.000000 0.000000 0.000000
vn 1.000000 0.000000 0.000000
vn 0.000000 -1.000000 0.000000
vn 1.000000 0.000000 0.000000
vn 0.000000 0.000000 -1.000000
vn 0.000000 0.000000 -1.000000
vn 1.000000 0.000000 0.000000
vn 0.000000 0.000000 -1.000000
vn -1.000000 0.000000 0.000000
vn -1.000000 0.000000 0.000000
vn 0.000000 0.000000 -1.000000
vn 0.000000 1.000000 0.000000
vn -1.000000 0.000000 0.000000
vn -1.000000 0.000000 0.000000
vn 0.000000 1.000000 0.000000
vn 0.000000 1.000000 0.000000
vn 1.000000 0.000000 0.000000
vn 1.000000 0.000000 0.000000
vn 0.000000 1.000000 0.000000
vn 0.000000 1.000000 0.000000
vn 0.000000 0.000000 -1.000000
vn 1.000000 0.000000 0.000000
vn 0.000000 1.000000 0.000000
vn -1.000000 0.000000 0.000000
vn 0.000000 0.000000 -1.000000
vn 0.000000 -1.000000 0.000000
vn -1.000000 0.000000 0.000000
vn -1.000000 0.000000 0.000000
vn -1.000000 0.000000 0.000000
vn 0.000000 0.000000 -1.000000
vn 0.000000 -1.000000 0.000000
vn 1.000000 0.000000 0.000000
vn 1.000000 0.000000 0.000000
vn 1.000000 0.000000 0.000000
vn 0.000000 0.000000 -1.000000
vn 1.000000 0.000000 0.000000
vn 0.000000 1.000000 0.000000
vn 0.000000 1.000000 0.000000
vn 1.000000 0.000000 0.000000
vn 0.000000 1.000000 0.000000
vn -1.000000 0.000000 0.000000
vn -1.000000 0.000000 0.000000
vn 0.000000 1.000000 0.000000
vn 0.000000 0.000000 1.000000
vn -1.000000 0.000000 0.000000
vn -1.000000 0.000000 0.000000
vn -1.000000 0.000000 0.000000
vn 0.000000 -1.000000 0.000000
vn 0.000000 0.000000 1.000000
vn 1.000000 0.000000 0.000000
vn 1.000000 0.000000 0.000000
vn 1.000000 0.000000 0.000000
vn 0.000000 -1.000000 0.000000
vn 1.000000 0.000000 0.000000
vn 0.000000 1.000000 0.000000
vn 0.000000 1.000000 0.000000
vn 1.000000 0.000000 0.000000
vn 0.000000 1.000000 0.000000
vn -1.000000 0.000000 0.000000
vn -1.000000 0.000000 0.000000
vn 0.000000 1.000000 0.000000
vn 0.000000 0.000000 -1.000000
vn -1.000000 0.000000 0.000000
vn -1.000000 0.000000 0.000000
vn -1.000000 0.000000 0.000000
vn 0.000000 1.000000 0.000000
vn 0.000000 0.000000 -1.000000
vn 1.000000 0.000000 0.000000
vn 1.000000 0.000000 0.000000
vn 1.000000 0.000000 0.000000
vn 0.000000 1.000000 0.000000
vn 1.000000 0.000000 0.000000
vn 0.000000 0.000000 1.000000
vn 0.000000 1.000000 0.000000
vn 1.000000 0.000000 0.000000
vn 1.000000 0.000000 0.000000
vn 0.000000 0.000000 1.000000
vn -1.000000 0.000000 0.000000
vn -1.000000 0.000000 0.000000
vn -1.000000 0.000000 0.000000
vn 0.000000 1.000000 0.000000
vn 0.000000 -1.000000 0.000000
vn -1.000000 0.000000 0.000000
vn -1.000000 0.000000 0.000000
vn 0.000000 -1.000000 0.000000
vn 0.000000 -1.000000 0.000000
vn 1.000000 0.000000 0.000000
vn 1.000000 0.000000 0.000000
vn 0.000000 -1.000000 0.000000
vn 0.000000 -1.000000 0.000000
vn 0.000000 -1.000000 0.000000
vn 1.000000 0.000000 0.000000
vn 1.000000 0.000000 0.000000
vn 0.000000 -1.000000 0.000000
vn -1.000000 0.000000 0.000000
vn -1.000000 0.000000 0.000000
vn 0.000000 -1.000000 0.000000
vn 0.000000 1.000000 0.000000
vn -1.000000 0.000000 0.000000
vn -1.000000 0.000000 0.000000
vn -1.000000 0.000000 0.000000
vn 0.000000 0.000000 1.000000
vn 0.000000 1.000000 0.000000
vn 1.000000 0.000000 0.000000
vn 1.000000 0.000000 0.000000
vn 1.000000 0.000000 0.000000
vn 0.000000 0.000000 1.000000
vn 1.000000 0.000000 0.000000
vn 0.000000 -1.000000 0.000000
vn 0.000000 -1.000000 0.000000
vn 1.000000 0.000000 0.000000
vn 0.000000 -1.000000 0.000000
vn -1.000000 0.000000 0.000000
vn -1.000000 0.000000 0.000000
vn 0.000000 -1.000000 0.000000
vn 0.000000 1.000000 0.000000
vn -1.000000 0.000000 0.000000
vn -1.000000 0.000000 0.000000
vn -1.000000 0.000000 0.000000
vn 0.000000 0.000000 -1.000000
vn 0.000000 1.000000 0.000000
vn 1.000000 0.000000 0.000000
vn 1.000000 0.000000 0.000000
vn 1.000000 0.000000 0.000000
vn 0.000000 0.000000 -1.000000
vn -1.000000 0.000000 0.000000
vn 0.000000 -1.000000 0.000000
vn 0.000000 -1.000000 0.000000
vn -1.000000 0.000000 0.000000
vn 0.000000 -1.000000 0.000000
vn 1.000000 0.000000 0.000000
vn 1.000000 0.000000 0.000000
vn 0.000000 -1.000000 0.000000
vn 0.000000 0.000000 -1.000000
vn -1.000000 0.000000 0.000000
vn -1.000000 0.000000 0.000000
vn 0.000000 0.000000 -1.000000
vn 0.000000 0.000000 -1.000000
vn 1.000000 0.000000 0.000000
vn 1.000000 0.000000 0.000000
vn 0.000000 0.000000 -1.000000
vn 0.000000 0.000000 -1.000000
vn 0.000000 -1.000000 0.000000
vn 1.000000 0.000000 0.000000
vn 0.000000 0.000000 -1.000000
vn -1.000000 0.000000 0.000000
vn 0.000000 -1.000000 0.000000
vn 0.000000 0.000000 1.000000
vn -1.000000 0.000000 0.000000
vn -1.000000 0.000000 0.000000
vn 0.000000 0.000000 1.000000
vn 0.000000 0.000000 1.000000
vn 1.000000 0.000000 0.000000
vn 1.000000 0.000000 0.000000
vn 0.000000 0.000000 1.000000
vn 0.000000 0.000000 1.000000
vn 0.000000 -1.000000 0.000000
vn -1.000000 0.000000 0.000000
vn 0.000000 0.000000 1.000000
vn 1.000000 0.000000 0.000000
vn 0.000000 -1.000000 0.000000
vn 0.000000 1.000000 0.000000
vn -1.000000 0.000000 0.000000
vn 0.000000 0.000000 1.000000
vn 0.000000 1.000000 0.000000
vn 1.000000 0.000000 0.000000
vn 0.000000 0.000000 1.000000
vn 0.000000 1.000000 0.000000
vn 0.000000 0.000000 -1.000000
vn 1.000000 0.000000 0.000000
vn 0.000000 1.000000 0.000000
vn -1.000000 0.000000 0.000000
vn 0.000000 0.000000 -1.000000
vn 0.000000 1.000000 0.000000
vn -1.000000 0.000000 0.000000
vn 0.000000 0.000000 -1.000000
vn 0.000000 1.000000 0.000000
vn 1.000000 0.000000 0.000000
vn 0.000000 0.000000 -1.000000
vn 0.000000 1.000000 0.000000
vn 0.000000 0.000000 1.000000
vn -1.000000 0.000000 0.000000
vn 0.000000 1.000000 0.000000
vn 1.000000 0.000000 0.000000
vn 0.000000 0.000000 1.000000
vn 0.000000 0.000000 1.000000
vn 0.000000 -1.000000 0.000000
vn 1.000000 0.000000 0.000000
vn 0.000000 0.000000 1.000000
vn 0.000000 0.000000 1.000000
vn 1.000000 0.000000 0.000000
vn 1.000000 0.000000 0.000000
vn 0.000000 0.000000 1.000000
vn -1.000000 0.000000 0.000000
vn -1.000000 0.000000 0.000000
vn 0.000000 0.000000 1.000000
vn 0.000000 0.000000 1.000000
vn 0.000000 -1.000000 0.000000
vn -1.000000 0.000000 0.000000
vn 0.000000 1.000000 0.000000
vn 1.000000 0.000000 0.000000
vn 0.000000 0.000000 -1.000000
vn 0.000000 1.000000 0.000000
vn -1.000000 0.000000 0.000000
vn 0.000000 0.000000 -1.000000
vn 0.000000 1.000000 0.000000
vn 0.000000 0.000000 1.000000
vn -1.000000 0.000000 0.000000
vn 0.000000 1.000000 0.000000
vn 1.000000 0.000000 0.000000
vn 0.000000 0.000000 1.000000
vn 0.000000 -1.000000 0.000000
vn -1.000000 0.000000 0.000000
vn -1.000000 0.000000 0.000000
vn 0.000000 -0.980283 -0.197598
vn 0.000000 -1.000000 0.000000
vn 1.000000 0.000000 0.000000
vn 1.000000 0.000000 0.000000
vn 0.000000 -0.980283 -0.197598
vn 1.000000 0.000000 0.000000
vn 0.000000 1.000000 0.000000
vn 0.000000 0.990608 0.136735
vn 1.000000 0.000000 0.000000
vn 0.000000 1.000000 0.000000
vn -1.000000 0.000000 0.000000
vn -1.000000 0.000000 0.000000
vn 0.000000 0.990608 0.136735
vn 0.000000 -0.980283 -0.197598
vn -1.000000 0.000000 0.000000
vn -1.000000 0.000000 0.000000
vn 0.000000 -0.793937 -0.608000
vn 0.000000 -0.980283 -0.197598
vn 1.000000 0.000000 0.000000
vn 1.000000 0.000000 0.000000
vn 0.000000 -0.793937 -0.608000
vn 1.000000 0.000000 0.000000
vn 0.000000 0.990608 0.136735
vn 0.000000 0.915310 0.402750
vn 1.000000 0.000000 0.000000
vn 0.000000 0.990608 0.136735
vn -1.000000 0.000000 0.000000
vn -1.000000 0.000000 0.000000
vn 0.000000 0.915310 0.402750
vn -1.000000 0.000000 0.000000
vn 0.000000 -0.597197 -0.802094
vn 1.000000 0.000000 0.000000
vn 0.000000 -0.597197 -0.802094
vn 0.000000 0.828126 0.560543
vn 1.000000 0.000000 0.000000
vn -1.000000 0.000000 0.000000
vn 0.000000 0.828126 0.560543
vn -1.000000 0.000000 0.000000
vn 0.000000 -0.139408 -0.990235
vn 1.000000 0.000000 0.000000
vn 0.000000 -0.139408 -0.990235
vn 0.000000 0.582857 0.812575
vn 1.000000 0.000000 0.000000
vn -1.000000 0.000000 0.000000
vn 0.000000 0.582857 0.812575
vn -1.000000 0.000000 0.000000
vn 0.000000 0.026279 -0.999655
vn 1.000000 0.000000 0.000000
vn 0.000000 0.026279 -0.999655
vn 0.000000 0.302027 0.953299
vn 1.000000 0.000000 0.000000
vn -1.000000 0.000000 0.000000
vn 0.000000 0.302027 0.953299
vn -1.000000 0.000000 0.000000
vn 0.000000 0.280244 -0.959929
vn 1.000000 0.000000 0.000000
vn 0.000000 0.280244 -0.959929
vn 0.000000 0.014906 0.999889
vn 1.000000 0.000000 0.000000
vn -1.000000 0.000000 0.000000
vn 0.000000 0.014906 0.999889
vn 0.000000 0.527805 -0.849365
vn -1.000000 0.000000 0.000000
vn 0.000000 0.527805 -0.849365
vn 1.000000 0.000000 0.000000
vn 1.000000 0.000000 0.000000
vn 0.000000 -0.264962 0.964259
vn 0.000000 -0.264962 0.964259
vn -1.000000 0.000000 0.000000
vn 0.000000 0.491208 -0.871042
vn -1.000000 0.000000 0.000000
vn -1.000000 0.000000 0.000000
vn 0.000000 0.305912 -0.952060
vn 0.000000 0.491208 -0.871042
vn 1.000000 0.000000 0.000000
vn 1.000000 0.000000 0.000000
vn 0.000000 0.305912 -0.952060
vn 1.000000 0.000000 0.000000
vn 0.000000 -0.391031 0.920377
vn 0.000000 -0.272091 0.962272
vn 1.000000 0.000000 0.000000
vn 0.000000 -0.391031 0.920377
vn -1.000000 0.000000 0.000000
vn -1.000000 0.000000 0.000000
vn 0.000000 -0.272091 0.962272
vn -1.000000 0.000000 0.000000
vn 0.000000 0.299525 -0.954089
vn 1.000000 0.000000 0.000000
vn 0.000000 0.299525 -0.954089
vn 0.000000 -0.282624 0.959231
vn 1.000000 0.000000 0.000000
vn -1.000000 0.000000 0.000000
vn 0.000000 -0.282624 0.959231
vn -1.000000 0.000000 0.000000
vn 0.000000 0.220802 -0.975319
vn 1.000000 0.000000 0.000000
vn 0.000000 0.220802 -0.975319
vn 0.000000 -0.155760 0.987795
vn 1.000000 0.000000 0.000000
vn -1.000000 0.000000 0.000000
vn 0.000000 -0.155760 0.987795
vn 0.000000 0.147243 -0.989100
vn -1.000000 0.000000 0.000000
vn -1.000000 0.000000 0.000000
vn 0.000000 -0.040917 -0.999163
vn 0.000000 0.147243 -0.989100
vn 1.000000 0.000000 0.000000
vn 1.000000 0.000000 0.000000
vn 0.000000 -0.040917 -0.999163
vn 1.000000 0.000000 0.000000
vn 0.000000 -0.015300 0.999883
vn 0.000000 0.102762 0.994706
vn 1.000000 0.000000 0.000000
vn 0.000000 -0.015300 0.999883
vn -1.000000 0.000000 0.000000
vn -1.000000 0.000000 0.000000
vn 0.000000 0.102762 0.994706
vn 0.000000 -0.040917 -0.999163
vn -1.000000 0.000000 0.000000
vn -1.000000 0.000000 0.000000
vn 0.000000 -0.062211 -0.998063
vn 0.000000 -0.040917 -0.999163
vn 1.000000 0.000000 0.000000
vn 1.000000 0.000000 0.000000
vn 0.000000 -0.062211 -0.998063
vn 1.000000 0.000000 0.000000
vn 0.000000 0.763034 0.646358
vn 1.000000 0.000000 0.000000
vn 0.000000 0.763034 0.646358
vn -1.000000 0.000000 0.000000
vn -1.000000 0.000000 0.000000
vn 0.000000 -0.062211 -0.998063
vn -1.000000 0.000000 0.000000
vn -1.000000 0.000000 0.000000
vn 0.000000 -0.166292 -0.986076
vn 0.000000 -0.062211 -0.998063
vn 1.000000 0.000000 0.000000
vn 1.000000 0.000000 0.000000
vn 0.000000 -0.166292 -0.986076
vn 1.000000 0.000000 0.000000
vn 0.000000 -0.614000 0.789306
vn 1.000000 0.000000 0.000000
vn 0.000000 -0.614000 0.789306
vn -1.000000 0.000000 0.000000
vn -1.000000 0.000000 0.000000
vn 0.000000 -0.166292 -0.986076
vn -1.000000 0.000000 0.000000
vn -1.000000 0.000000 0.000000
vn 0.000000 -0.298201 -0.954503
vn 0.000000 -0.166292 -0.986076
vn 1.000000 0.000000 0.000000
vn 1.000000 0.000000 0.000000
vn 0.000000 -0.298201 -0.954503
vn 1.000000 0.000000 0.000000
vn 0.000000 0.185233 0.982695
vn 0.000000 0.376343 0.926480
vn 1.000000 0.000000 0.000000
vn 0.000000 0.185233 0.982695
vn -1.000000 0.000000 0.000000
vn -1.000000 0.000000 0.000000
vn 0.000000 0.376343 0.926480
vn 0.000000 -0.298201 -0.954503
vn -1.000000 0.000000 0.000000
vn -1.000000 0.000000 0.000000
vn 0.000000 -0.402796 -0.915290
vn 0.000000 -0.298201 -0.954503
vn 1.000000 0.000000 0.000000
vn 1.000000 0.000000 0.000000
vn 0.000000 -0.402796 -0.915290
vn 1.000000 0.000000 0.000000
vn 0.000000 0.376343 0.926480
vn 0.000000 0.417886 0.908500
vn 1.000000 0.000000 0.000000
vn 0.000000 0.376343 0.926480
vn -1.000000 0.000000 0.000000
vn -1.000000 0.000000 0.000000
vn 0.000000 0.417886 0.908500
vn -1.000000 0.000000 0.000000
vn 0.000000 -0.507405 -0.861708
vn 1.000000 0.000000 0.000000
vn 0.000000 -0.507405 -0.861708
vn 0.000000 0.565396 0.824819
vn 1.000000 0.000000 0.000000
vn -1.000000 0.000000 0.000000
vn 0.000000 0.565396 0.824819
vn -1.000000 0.000000 0.000000
vn 0.000000 -0.460957 -0.887422
vn 1.000000 0.000000 0.000000
vn 0.000000 -0.460957 -0.887422
vn 0.000000 0.578984 0.815339
vn 1.000000 0.000000 0.000000
vn -1.000000 0.000000 0.000000
vn 0.000000 0.578984 0.815339
vn 0.000000 -0.018766 -0.999824
vn -1.000000 0.000000 0.000000
vn 0.000000 -0.018766 -0.999824
vn 1.000000 0.000000 0.000000
vn 1.000000 0.000000 0.000000
vn 0.000000 0.290051 0.957011
vn 0.000000 0.290051 0.957011
vn -1.000000 0.000000 0.000000
vn -1.000000 0.000000 0.000000
vn 0.000000 0.128813 -0.991669
vn 1.000000 0.000000 0.000000
vn 0.000000 0.128813 -0.991669
vn 0.000000 0.069248 0.997599
vn 1.000000 0.000000 0.000000
vn -1.000000 0.000000 0.000000
vn 0.000000 0.069248 0.997599
vn 0.000000 0.072556 -0.997364
vn -1.000000 0.000000 0.000000
vn 0.000000 0.072556 -0.997364
vn 1.000000 0.000000 0.000000
vn 1.000000 0.000000 0.000000
vn 0.000000 -0.019818 0.999804
vn 0.000000 -0.019818 0.999804
vn -1.000000 0.000000 0.000000
vn 0.000000 -0.527595 -0.849496
vn -1.000000 0.000000 0.000000
vn 0.000000 -0.527595 -0.849496
vn 1.000000 0.000000 0.000000
vn 1.000000 0.000000 0.000000
vn 0.000000 -0.351903 0.936036
vn 0.000000 -0.351903 0.936036
vn -1.000000 0.000000 0.000000
vn 0.000000 -0.994938 -0.100495
vn -1.000000 0.000000 0.000000
vn 0.000000 -0.954885 -0.296977
vn 0.000000 -0.994938 -0.100495
vn 1.000000 0.000000 0.000000
vn 0.000000 -0.954885 -0.296977
vn 0.000000 -0.987384 0.158342
vn 0.000000 -0.788699 0.614780
vn 1.000000 0.000000 0.000000
vn 0.000000 -0.987384 0.158342
vn -1.000000 0.000000 0.000000
vn 0.000000 -0.788699 0.614780
vn -0.577350 0.612149 0.540315
vn 0.577350 0.612149 0.540315
vn -0.577350 -0.540314 0.612149
vn 0.577350 -0.540314 0.612149
vt 0.000000 0.000000
vt 0.000000 0.000000
vt 0.000000 0.000000
vt 0.000000 0.000000
vt 0.000000 0.000000
vt 0.000000 0.000000
vt 0.000000 0.000000
vt 0.000000 0.000000
vt 0.000000 0.000000
vt 0.000000 0.000000
vt 0.000000 0.000000
vt 0.000000 0.000000
vt 0.000000 0.000000
vt 0.000000 0.000000
vt 0.000000 0.000000
vt 0.000000 0.000000
vt 0.000000 0.000000
vt 0.000000 0.000000
vt 0.000000 0.000000
vt 0.000000 0.000000
vt 0.000000 0.000000
vt 0.000000 0.000000
vt 0.000000 0.000000
vt 0.000000 0.000000
vt 0.000000 0.000000
vt 0.000000 0.000000
vt 0.000000 0.000000
vt 0.000000 0.000000
vt 0.000000 0.000000
vt 0.000000 0.000000
vt 0.000000 0.000000
vt 0.000000 0.000000
vt 0.000000 0.000000
vt 0.000000 0.000000
vt 0.000000 0.000000
vt 0.000000 0.000000
vt 0.000000 0.000000
vt 0.000000 0.000000
vt 0.000000 0.000000
vt 0.000000 0.000000
vt 0.000000 0.000000
vt 0.000000 0.000000
vt 0.000000 0.000000
vt 0.000000 0.000000
vt 0.000000 0.000000
vt 0.000000 0.000000
vt 0.000000 0.000000
vt 0.000000 0.000000
vt 0.000000 0.000000
vt 0.000000 0.000000
vt 0.000000 0.000000
vt 0.000000 0.000000
vt 0.000000 0.000000
vt 0.000000 0.000000
vt 0.000000 0.000000
vt 0.000000 0.000000
vt 0.000000 0.000000
vt 0.000000 0.000000
vt 0.000000 0.000000
vt 0.000000 0.000000
vt 0.000000 0.000000
vt 0.000000 0.000000
vt 0.000000 0.000000
vt 0.000000 0.000000
vt 0.000000 0.000000
vt 0.000000 0.000000
vt 0.000000 0.000000
vt 0.000000 0.000000
vt 0.000000 0.000000
vt 0.000000 0.000000
vt 0.000000 0.000000
vt 0.000000 0.000000
vt 0.000000 0.000000
vt 0.000000 0.000000
vt 0.000000 0.000000
vt 0.000000 0.000000
vt 0.000000 0.000000
vt 0.000000 0.000000
vt 0.000000 0.000000
vt 0.000000 0.000000
vt 0.000000 0.000000
vt 0.000000 0.000000
vt 0.000000 0.000000
vt 0.000000 0.000000
vt 0.000000 0.000000
vt 0.000000 0.000000
vt 0.000000 0.000000
vt 0.000000 0.000000
vt 0.000000 0.000000
vt 0.000000 0.000000
vt 0.000000 0.000000
vt 0.000000 0.000000
vt 0.000000 0.000000
vt 0.000000 0.000000
vt 0.000000 0.000000
vt 0.000000 0.000000
vt 0.000000 0.000000
vt 0.000000 0.000000
vt 0.000000 0.000000
vt 0.000000 0.000000
vt 0.000000 0.000000
vt 0.000000 0.000000
vt 0.000000 0.000000
vt 0.000000 0.000000
vt 0.000000 0.000000
vt 0.000000 0.000000
vt 0.000000 0.000000
vt 0.000000 0.000000
vt 0.000000 0.000000
vt 0.000000 0.000000
vt 0.000000 0.000000
vt 0.000000 0.000000
vt 0.000000 0.000000
vt 0.000000 0.000000
vt 0.000000 0.000000
vt 0.000000 0.000000
vt 0.000000 0.000000
vt 0.000000 0.000000
vt 0.000000 0.000000
vt 0.000000 0.000000
vt 0.000000 0.000000
vt 0.000000 0.000000
vt 0.000000 0.000000
vt 0.000000 0.000000
vt 0.000000 0.000000
vt 0.000000 0.000000
vt 0.000000 0.000000
vt 0.000000 0.000000
vt 0.000000 0.000000
vt 0.000000 0.000000
vt 0.000000 0.000000
vt 0.000000 0.000000
vt 0.000000 0.000000
vt 0.000000 0.000000
vt 0.000000 0.000000
vt 0.000000 0.000000
vt 0.000000 0.000000
vt 0.000000 0.000000
vt 0.000000 0.000000
vt 0.000000 0.000000
vt 0.000000 0.000000
vt 0.000000 0.000000
vt 0.000000 0.000000
vt 0.000000 0.000000
vt 0.000000 0.000000
vt 0.000000 0.000000
vt 0.000000 0.000000
vt 0.000000 0.000000
vt 0.000000 0.000000
vt 0.000000 0.000000
vt 0.000000 0.000000
vt 0.000000 0.000000
vt 0.000000 0.000000
vt 0.000000 0.000000
vt 0.000000 0.000000
vt 0.000000 0.000000
vt 0.000000 0.000000
vt 0.000000 0.000000
vt 0.000000 0.000000
vt 0.000000 0.000000
vt 0.000000 0.000000
vt 0.000000 0.000000
vt 0.000000 0.000000
vt 0.000000 0.000000
vt 0.000000 0.000000
vt 0.000000 0.000000
vt 0.000000 0.000000
vt 0.000000 0.000000
vt 0.000000 0.000000
vt 0.000000 0.000000
vt 0.000000 0.000000
vt 0.000000 0.000000
vt 0.000000 0.000000
vt 0.000000 0.000000
vt 0.000000 0.000000
vt 0.000000 0.000000
vt 0.000000 0.000000
vt 0.000000 0.000000
vt 0.000000 0.000000
vt 0.000000 0.000000
vt 0.000000 0.000000
vt 0.000000 0.000000
vt 0.000000 0.000000
vt 0.000000 0.000000
vt 0.000000 0.000000
vt 0.000000 0.000000
vt 0.000000 0.000000
vt 0.000000 0.000000
vt 0.000000 0.000000
vt 0.000000 0.000000
vt 0.000000 0.000000
vt 0.000000 0.000000
vt 0.000000 0.000000
vt 0.000000 0.000000
vt 0.000000 0.000000
vt 0.000000 0.000000
vt 0.000000 0.000000
vt 0.000000 0.000000
vt 0.000000 0.000000
vt 0.000000 0.000000
vt 0.000000 0.000000
vt 0.000000 0.000000
vt 0.000000 0.000000
vt 0.000000 0.000000
vt 0.000000 0.000000
vt 0.000000 0.000000
vt 0.000000 0.000000
vt 0.000000 0.000000
vt 0.000000 0.000000
vt 0.000000 0.000000
vt 0.000000 0.000000
vt 0.000000 0.000000
vt 0.000000 0.000000
vt 0.000000 0.000000
vt 0.000000 0.000000
vt 0.000000 0.000000
vt 0.000000 0.000000
vt 0.000000 0.000000
vt 0.000000 0.000000
vt 0.000000 0.000000
vt 0.000000 0.000000
vt 0.000000 0.000000
vt 0.000000 0.000000
vt 0.000000 0.000000
vt 0.000000 0.000000
vt 0.000000 0.000000
vt 0.000000 0.000000
vt 0.000000 0.000000
vt 0.000000 0.000000
vt 0.000000 0.000000
vt 0.000000 0.000000
vt 0.000000 0.000000
vt 0.000000 0.000000
vt 0.000000 0.000000
vt 0.000000 0.000000
vt 0.000000 0.000000
vt 0.000000 0.000000
vt 0.000000 0.000000
vt 0.000000 0.000000
vt 0.000000 0.000000
vt 0.000000 0.000000
vt 0.000000 0.000000
vt 0.000000 0.000000
vt 0.000000 0.000000
vt 0.000000 0.000000
vt 0.000000 0.000000
vt 0.000000 0.000000
vt 0.000000 0.000000
vt 0.000000 0.000000
vt 0.000000 0.000000
vt 0.000000 0.000000
vt 0.000000 0.000000
vt 0.000000 0.000000
vt 0.000000 0.000000
vt 0.000000 0.000000
vt 0.000000 0.000000
vt 0.000000 0.000000
vt 0.000000 0.000000
vt 0.000000 0.000000
vt 0.000000 0.000000
vt 0.000000 0.000000
vt 0.000000 0.000000
vt 0.000000 0.000000
vt 0.000000 0.000000
vt 0.000000 0.000000
vt 0.000000 0.000000
vt 0.000000 0.000000
vt 0.000000 0.000000
vt 0.000000 0.000000
vt 0.000000 0.000000
vt 0.000000 0.000000
vt 0.000000 0.000000
vt 0.000000 0.000000
vt 0.000000 0.000000
vt 0.000000 0.000000
vt 0.000000 0.000000
vt 0.000000 0.000000
vt 0.000000 0.000000
vt 0.000000 0.000000
vt 0.000000 0.000000
vt 0.000000 0.000000
vt 0.000000 0.000000
vt 0.000000 0.000000
vt 0.000000 0.000000
vt 0.000000 0.000000
vt 0.000000 0.000000
vt 0.000000 0.000000
vt 0.000000 0.000000
vt 0.000000 0.000000
vt 0.000000 0.000000
vt 0.000000 0.000000
vt 0.000000 0.000000
vt 0.000000 0.000000
vt 0.000000 0.000000
vt 0.000000 0.000000
vt 0.000000 0.000000
vt 0.000000 0.000000
vt 0.000000 0.000000
vt 0.000000 0.000000
vt 0.000000 0.000000
vt 0.000000 0.000000
vt 0.000000 0.000000
vt 0.000000 0.000000
vt 0.000000 0.000000
vt 0.000000 0.000000
vt 0.000000 0.000000
vt 0.000000 0.000000
vt 0.000000 0.000000
vt 0.000000 0.000000
vt 0.000000 0.000000
vt 0.000000 0.000000
vt 0.000000 0.000000
vt 0.000000 0.000000
vt 0.000000 0.000000
vt 0.000000 0.000000
vt 0.000000 0.000000
vt 0.000000 0.000000
vt 0.000000 0.000000
vt 0.000000 0.000000
vt 0.000000 0.000000
vt 0.000000 0.000000
vt 0.000000 0.000000
vt 0.000000 0.000000
vt 0.000000 0.000000
vt 0.000000 0.000000
vt 0.000000 0.000000
vt 0.000000 0.000000
vt 0.000000 0.000000
vt 0.000000 0.000000
vt 0.000000 0.000000
vt 0.000000 0.000000
vt 0.000000 0.000000
vt 0.000000 0.000000
vt 0.000000 0.000000
vt 0.000000 0.000000
vt 0.000000 0.000000
vt 0.000000 0.000000
vt 0.000000 0.000000
vt 0.000000 0.000000
vt 0.000000 0.000000
vt 0.000000 0.000000
vt 0.000000 0.000000
vt 0.000000 0.000000
vt 0.000000 0.000000
vt 0.000000 0.000000
vt 0.000000 0.000000
vt 0.000000 0.000000
vt 0.000000 0.000000
vt 0.000000 0.000000
vt 0.000000 0.000000
vt 0.000000 0.000000
vt 0.000000 0.000000
vt 0.000000 0.000000
vt 0.000000 0.000000
vt 0.000000 0.000000
vt 0.000000 0.000000
vt 0.000000 0.000000
vt 0.000000 0.000000
vt 0.000000 0.000000
vt 0.000000 0.000000
vt 0.000000 0.000000
vt 0.000000 0.000000
vt 0.000000 0.000000
vt 0.000000 0.000000
vt 0.000000 0.000000
vt 0.000000 0.000000
vt 0.000000 0.000000
vt 0.000000 0.000000
vt 0.000000 0.000000
vt 0.000000 0.000000
vt 0.000000 0.000000
vt 0.000000 0.000000
vt 0.000000 0.000000
vt 0.000000 0.000000
vt 0.000000 0.000000
vt 0.000000 0.000000
vt 0.000000 0.000000
vt 0.000000 0.000000
vt 0.000000 0.000000
vt 0.000000 0.000000
vt 0.000000 0.000000
vt 0.000000 0.000000
vt 0.000000 0.000000
vt 0.000000 0.000000
vt 0.000000 0.000000
vt 0.000000 0.000000
vt 0.000000 0.000000
vt 0.000000 0.000000
vt 0.000000 0.000000
vt 0.000000 0.000000
vt 0.000000 0.000000
vt 0.000000 0.000000
vt 0.000000 0.000000
vt 0.000000 0.000000
vt 0.000000 0.000000
vt 0.000000 0.000000
vt 0.000000 0.000000
vt 0.000000 0.000000
vt 0.000000 0.000000
vt 0.000000 0.000000
vt 0.000000 0.000000
vt 0.000000 0.000000
vt 0.000000 0.000000
vt 0.000000 0.000000
vt 0.000000 0.000000
vt 0.000000 0.000000
vt 0.000000 0.000000
vt 0.000000 0.000000
vt 0.000000 0.000000
vt 0.000000 0.000000
vt 0.000000 0.000000
vt 0.000000 0.000000
vt 0.000000 0.000000
vt 0.000000 0.000000
vt 0.000000 0.000000
vt 0.000000 0.000000
vt 0.000000 0.000000
vt 0.000000 0.000000
vt 0.000000 0.000000
vt 0.000000 0.000000
vt 0.000000 0.000000
vt 0.000000 0.000000
vt 0.000000 0.000000
vt 0.000000 0.000000
vt 0.000000 0.000000
vt 0.000000 0.000000
vt 0.000000 0.000000
vt 0.000000 0.000000
vt 0.000000 0.000000
vt 0.000000 0.000000
vt 0.000000 0.000000
vt 0.000000 0.000000
vt 0.000000 0.000000
vt 0.000000 0.000000
vt 0.000000 0.000000
vt 0.000000 0.000000
vt 0.000000 0.000000
vt 0.000000 0.000000
vt 0.000000 0.000000
vt 0.000000 0.000000
vt 0.000000 0.000000
vt 0.000000 0.000000
vt 0.000000 0.000000
vt 0.000000 0.000000
vt 0.000000 0.000000
vt 0.000000 0.000000
vt 0.000000 0.000000
vt 0.000000 0.000000
vt 0.000000 0.000000
vt 0.000000 0.000000
vt 0.000000 0.000000
vt 0.000000 0.000000
vt 0.000000 0.000000
vt 0.000000 0.000000
vt 0.000000 0.000000
vt 0.000000 0.000000
vt 0.000000 0.000000
vt 0.000000 0.000000
vt 0.000000 0.000000
vt 0.000000 0.000000
vt 0.000000 0.000000
vt 0.000000 0.000000
vt 0.000000 0.000000
vt 0.000000 0.000000
vt 0.000000 0.000000
vt 0.000000 0.000000
vt 0.000000 0.000000
vt 0.000000 0.000000
vt 0.000000 0.000000
vt 0.000000 0.000000
vt 0.000000 0.000000
vt 0.000000 0.000000
vt 0.000000 0.000000
vt 0.000000 0.000000
vt 0.000000 0.000000
vt 0.000000 0.000000
vt 0.000000 0.000000
vt 0.000000 0.000000
vt 0.000000 0.000000
vt 0.000000 0.000000
vt 0.000000 0.000000
vt 0.000000 0.000000
vt 0.000000 0.000000
vt 0.000000 0.000000
vt 0.000000 0.000000
vt 0.000000 0.000000
vt 0.000000 0.000000
vt 0.000000 0.000000
vt 0.000000 0.000000
vt 0.000000 0.000000
vt 0.000000 0.000000
vt 0.000000 0.000000
vt 0.000000 0.000000
vt 0.000000 0.000000
vt 0.000000 0.000000
vt 0.000000 0.000000
vt 0.000000 0.000000
vt 0.000000 0.000000
vt 0.000000 0.000000
vt 0.000000 0.000000
vt 0.000000 0.000000
vt 0.000000 0.000000
vt 0.000000 0.000000
vt 0.000000 0.000000
vt 0.000000 0.000000
vt 0.000000 0.000000
vt 0.000000 0.000000
vt 0.000000 0.000000
vt 0.000000 0.000000
vt 0.000000 0.000000
vt 0.000000 0.000000
vt 0.000000 0.000000
g Cube
usemtl Default
f 37/1/37 41/2/41 44/3/44 47/4/47 
f 243/5/243 246/6/246 250/7/250 254/8/254 
f 24/9/24 20/10/20 1/11/1 6/12/6 
f 32/13/32 23/14/23 5/15/5 14/16/14 
f 27/17/27 33/18/33 15/19/15 10/20/10 
f 19/21/19 28/22/28 9/23/9 2/24/2 
f 18/25/18 8/26/8 43/27/43 40/28/40 
f 7/29/7 4/30/4 46/31/46 42/32/42 
f 3/33/3 13/34/13 50/35/50 45/36/45 
f 69/37/69 73/38/73 77/39/77 80/40/80 
f 11/41/11 16/42/16 56/43/56 51/44/51 
f 17/45/17 39/46/39 61/47/61 57/48/57 
f 38/49/38 48/50/48 65/51/65 62/52/62 
f 49/53/49 12/54/12 52/55/52 66/56/66 
f 497/57/497 500/58/500 503/59/503 506/60/506 
f 58/61/58 64/62/64 79/63/79 74/64/74 
f 63/65/63 68/66/68 82/67/82 78/68/78 
f 67/69/67 53/70/53 70/71/70 81/72/81 
f 55/73/55 60/74/60 88/75/88 83/76/83 
f 59/77/59 75/78/75 93/79/93 89/80/89 
f 76/81/76 72/82/72 97/83/97 94/84/94 
f 71/85/71 54/86/54 84/87/84 98/88/98 
f 139/89/139 143/90/143 147/91/147 151/92/151 
f 90/93/90 96/94/96 111/95/111 108/96/108 
f 95/97/95 100/98/100 115/99/115 112/100/112 
f 99/101/99 85/102/85 103/103/103 116/104/116 
f 87/105/87 92/106/92 124/107/124 119/108/119 
f 91/109/91 107/110/107 129/111/129 125/112/125 
f 106/113/106 101/114/101 134/115/134 130/116/130 
f 102/117/102 86/118/86 120/119/120 135/120/135 
f 191/121/191 195/122/195 199/123/199 202/124/202 
f 126/125/126 133/126/133 150/127/150 144/128/144 
f 209/129/209 205/130/205 213/131/213 216/132/216 
f 136/133/136 121/134/121 140/135/140 152/136/152 
f 123/137/123 128/138/128 160/139/160 155/140/155 
f 127/141/127 145/142/145 165/143/165 161/144/161 
f 146/145/146 142/146/142 169/147/169 166/148/166 
f 141/149/141 122/150/122 156/151/156 170/152/170 
f 131/153/131 138/154/138 173/155/173 178/156/178 
f 137/157/137 153/158/153 183/159/183 174/160/174 
f 154/161/154 148/162/148 187/163/187 184/164/184 
f 149/165/149 132/166/132 179/167/179 188/168/188 
f 219/169/219 222/170/222 225/171/225 228/172/228 
f 162/173/162 168/174/168 201/175/201 196/176/196 
f 167/177/167 172/178/172 204/179/204 200/180/200 
f 171/181/171 157/182/157 192/183/192 203/184/203 
f 234/185/234 231/186/231 237/187/237 240/188/240 
f 175/189/175 186/190/186 215/191/215 206/192/206 
f 185/193/185 190/194/190 218/195/218 214/196/214 
f 189/197/189 180/198/180 210/199/210 217/200/217 
f 159/201/159 164/202/164 224/203/224 221/204/221 
f 163/205/163 197/206/197 227/207/227 223/208/223 
f 198/209/198 194/210/194 230/211/230 226/212/226 
f 193/213/193 158/214/158 220/215/220 229/216/229 
f 182/217/182 177/218/177 233/219/233 236/220/236 
f 176/221/176 207/222/207 239/223/239 232/224/232 
f 208/225/208 212/226/212 242/227/242 238/228/238 
f 211/229/211 181/230/181 235/231/235 241/232/241 
f 26/233/26 36/234/36 249/235/249 245/236/245 
f 257/237/257 260/238/260 263/239/263 266/240/266 
f 29/241/29 22/242/22 256/243/256 251/244/251 
f 21/245/21 25/246/25 244/247/244 255/248/255 
f 34/249/34 31/250/31 262/251/262 259/252/259 
f 30/253/30 252/254/252 265/255/265 261/256/261 
f 253/257/253 247/258/247 268/259/268 264/260/264 
f 248/261/248 35/262/35 258/263/258 267/264/267 
f 105/265/105 110/266/110 273/267/273 269/268/269 
f 109/269/109 114/270/114 277/271/277 274/272/274 
f 113/273/113 118/274/118 281/275/281 278/276/278 
f 117/277/117 104/278/104 270/279/270 282/280/282 
f 272/281/272 276/282/276 289/283/289 285/284/285 
f 275/285/275 280/286/280 293/287/293 290/288/290 
f 279/289/279 284/290/284 297/291/297 294/292/294 
f 283/293/283 271/294/271 286/295/286 298/296/298 
f 288/297/288 292/298/292 304/299/304 302/300/302 
f 291/301/291 296/302/296 306/303/306 303/304/303 
f 295/305/295 300/306/300 308/307/308 305/308/305 
f 299/309/299 287/310/287 301/311/301 307/312/307 
f 302/300/302 304/299/304 312/313/312 310/314/310 
f 303/304/303 306/303/306 314/315/314 311/316/311 
f 305/308/305 308/307/308 316/317/316 313/318/313 
f 307/312/307 301/311/301 309/319/309 315/320/315 
f 310/314/310 312/313/312 320/321/320 318/322/318 
f 311/316/311 314/315/314 322/323/322 319/324/319 
f 313/318/313 316/317/316 324/325/324 321/326/321 
f 315/320/315 309/319/309 317/327/317 323/328/323 
f 318/322/318 320/321/320 328/329/328 326/330/326 
f 319/324/319 322/323/322 330/331/330 327/332/327 
f 321/326/321 324/325/324 332/333/332 329/334/329 
f 323/328/323 317/327/317 325/335/325 331/336/331 
f 326/330/326 328/329/328 335/337/335 333/338/333 
f 327/332/327 330/331/330 337/339/337 336/340/336 
f 329/334/329 332/333/332 339/341/339 338/342/338 
f 331/336/331 325/335/325 334/343/334 340/344/340 
f 345/345/345 341/346/341 333/338/333 335/337/335 
f 349/347/349 346/348/346 336/340/336 337/339/337 
f 353/349/353 350/350/350 338/342/338 339/341/339 
f 342/351/342 354/352/354 340/344/340 334/343/334 
f 344/353/344 348/354/348 360/355/360 358/356/358 
f 347/357/347 352/358/352 362/359/362 359/360/359 
f 351/361/351 356/362/356 364/363/364 361/364/361 
f 355/365/355 343/366/343 357/367/357 363/368/363 
f 358/356/358 360/355/360 368/369/368 366/370/366 
f 359/360/359 362/359/362 370/371/370 367/372/367 
f 361/364/361 364/363/364 372/373/372 369/374/369 
f 363/368/363 357/367/357 365/375/365 371/376/371 
f 366/370/366 368/369/368 377/377/377 373/378/373 
f 367/372/367 370/371/370 381/379/381 378/380/378 
f 369/374/369 372/373/372 385/381/385 382/382/382 
f 371/376/371 365/375/365 374/383/374 386/384/386 
f 376/385/376 380/386/380 393/387/393 389/388/389 
f 379/389/379 384/390/384 397/391/397 394/392/394 
f 383/393/383 388/394/388 400/395/400 398/396/398 
f 387/397/387 375/398/375 390/399/390 401/400/401 
f 392/401/392 396/402/396 407/403/407 403/404/403 
f 395/405/395 399/406/399 411/407/411 408/408/408 
f 510/409/510 509/410/509 511/411/511 512/412/512 
f 402/413/402 391/414/391 404/415/404 416/416/416 
f 406/417/406 410/418/410 421/419/421 417/420/417 
f 409/421/409 413/422/413 425/423/425 422/424/422 
f 412/425/412 414/426/414 429/427/429 426/428/426 
f 415/429/415 405/430/405 418/431/418 430/432/430 
f 420/433/420 424/434/424 437/435/437 433/436/433 
f 423/437/423 428/438/428 441/439/441 438/440/438 
f 427/441/427 432/442/432 445/443/445 442/444/442 
f 431/445/431 419/446/419 434/447/434 446/448/446 
f 436/449/436 440/450/440 452/451/452 450/452/450 
f 439/453/439 444/454/444 454/455/454 451/456/451 
f 443/457/443 448/458/448 456/459/456 453/460/453 
f 447/461/447 435/462/435 449/463/449 455/464/455 
f 450/452/450 452/451/452 460/465/460 458/466/458 
f 451/456/451 454/455/454 462/467/462 459/468/459 
f 453/460/453 456/459/456 464/469/464 461/470/461 
f 455/464/455 449/463/449 457/471/457 463/472/463 
f 458/466/458 460/465/460 467/473/467 465/474/465 
f 459/468/459 462/467/462 469/475/469 468/476/468 
f 461/470/461 464/469/464 471/477/471 470/478/470 
f 463/472/463 457/471/457 466/479/466 472/480/472 
f 465/474/465 467/473/467 476/481/476 474/482/474 
f 468/476/468 469/475/469 478/483/478 475/484/475 
f 470/478/470 471/477/471 480/485/480 477/486/477 
f 472/480/472 466/479/466 473/487/473 479/488/479 
f 474/482/474 476/481/476 483/489/483 481/490/481 
f 475/484/475 478/483/478 485/491/485 484/492/484 
f 477/486/477 480/485/480 487/493/487 486/494/486 
f 479/488/479 473/487/473 482/495/482 488/496/488 
f 491/497/491 489/498/489 481/490/481 483/489/483 
f 493/499/493 492/500/492 484/492/484 485/491/485 
f 495/501/495 494/502/494 486/494/486 487/493/487 
f 490/503/490 496/504/496 488/496/488 482/495/482 
f 502/505/502 499/506/499 489/498/489 491/497/491 
f 505/507/505 501/508/501 492/500/492 493/499/493 
f 508/509/508 504/510/504 494/502/494 495/501/495 
f 498/511/498 507/512/507 496/504/496 490/503/490 
f 398/396/398 400/395/400 509/410/509 510/409/510 
f 402/413/402 416/416/416 511/411/511 509/410/509 
f 414/426/414 412/425/412 512/412/512 511/411/511 
f 411/407/411 399/406/399 510/409/510 512/412/512 
f 1/11/1 2/24/2 3/33/3 4/30/4 
f 5/15/5 6/12/6 7/29/7 8/26/8 
f 9/23/9 10/20/10 11/41/11 12/54/12 13/34/13 
f 18/25/18 17/45/17 16/42/16 15/19/15 14/16/14 
f 19/21/19 20/10/20 21/245/21 22/242/22 
f 26/233/26 25/246/25 24/9/24 23/14/23 
f 27/17/27 28/22/28 29/241/29 30/253/30 31/250/31 
f 32/13/32 33/18/33 34/249/34 35/262/35 36/234/36 
f 37/1/37 38/49/38 39/46/39 40/28/40 
f 43/27/43 42/32/42 41/2/41 
f 46/31/46 45/36/45 44/3/44 
f 50/35/50 49/53/49 48/50/48 47/4/47 
f 55/73/55 54/86/54 53/70/53 52/55/52 51/44/51 
f 56/43/56 57/48/57 58/61/58 59/77/59 60/74/60 
f 61/47/61 62/52/62 63/65/63 64/62/64 
f 65/51/65 66/56/66 67/69/67 68/66/68 
f 69/37/69 70/71/70 71/85/71 72/82/72 
f 76/81/76 75/78/75 74/64/74 73/38/73 
f 79/63/79 78/68/78 77/39/77 
f 82/67/82 81/72/81 80/40/80 
f 87/105/87 86/118/86 85/102/85 84/87/84 83/76/83 
f 88/75/88 89/80/89 90/93/90 91/109/91 92/106/92 
f 93/79/93 94/84/94 95/97/95 96/94/96 
f 97/83/97 98/88/98 99/101/99 100/98/100 
f 105/265/105 104/278/104 103/103/103 102/117/102 101/114/101 
f 106/113/106 107/110/107 108/96/108 109/269/109 110/266/110 
f 111/95/111 112/100/112 113/273/113 114/270/114 
f 115/99/115 116/104/116 117/277/117 118/274/118 
f 123/137/123 122/150/122 121/134/121 120/119/120 119/108/119 
f 124/107/124 125/112/125 126/125/126 127/141/127 128/138/128 
f 129/111/129 130/116/130 131/153/131 132/166/132 133/126/133 
f 134/115/134 135/120/135 136/133/136 137/157/137 138/154/138 
f 139/89/139 140/135/140 141/149/141 142/146/142 
f 146/145/146 145/142/145 144/128/144 143/90/143 
f 150/127/150 149/165/149 148/162/148 147/91/147 
f 154/161/154 153/158/153 152/136/152 151/92/151 
f 159/201/159 158/214/158 157/182/157 156/151/156 155/140/155 
f 160/139/160 161/144/161 162/173/162 163/205/163 164/202/164 
f 165/143/165 166/148/166 167/177/167 168/174/168 
f 169/147/169 170/152/170 171/181/171 172/178/172 
f 173/155/173 174/160/174 175/189/175 176/221/176 177/218/177 
f 182/217/182 181/230/181 180/198/180 179/167/179 178/156/178 
f 183/159/183 184/164/184 185/193/185 186/190/186 
f 187/163/187 188/168/188 189/197/189 190/194/190 
f 191/121/191 192/183/192 193/213/193 194/210/194 
f 198/209/198 197/206/197 196/176/196 195/122/195 
f 201/175/201 200/180/200 199/123/199 
f 204/179/204 203/184/203 202/124/202 
f 208/225/208 207/222/207 206/192/206 205/130/205 
f 209/129/209 210/199/210 211/229/211 212/226/212 
f 215/191/215 214/196/214 213/131/213 
f 218/195/218 217/200/217 216/132/216 
f 219/169/219 220/215/220 221/204/221 
f 224/203/224 223/208/223 222/170/222 
f 227/207/227 226/212/226 225/171/225 
f 230/211/230 229/216/229 228/172/228 
f 233/219/233 232/224/232 231/186/231 
f 234/185/234 235/231/235 236/220/236 
f 239/223/239 238/228/238 237/187/237 
f 242/227/242 241/232/241 240/188/240 
f 243/5/243 244/247/244 245/236/245 
f 249/235/249 248/261/248 247/258/247 246/6/246 
f 253/257/253 252/254/252 251/244/251 250/7/250 
f 256/243/256 255/248/255 254/8/254 
f 257/237/257 258/263/258 259/252/259 
f 262/251/262 261/256/261 260/238/260 
f 265/255/265 264/260/264 263/239/263 
f 268/259/268 267/264/267 266/240/266 
f 272/281/272 271/294/271 270/279/270 269/268/269 
f 273/267/273 274/272/274 275/285/275 276/282/276 
f 277/271/277 278/276/278 279/289/279 280/286/280 
f 281/275/281 282/280/282 283/293/283 284/290/284 
f 288/297/288 287/310/287 286/295/286 285/284/285 
f 289/283/289 290/288/290 291/301/291 292/298/292 
f 293/287/293 294/292/294 295/305/295 296/302/296 
f 297/291/297 298/296/298 299/309/299 300/306/300 
f 302/300/302 301/311/301 287/310/287 288/297/288 
f 303/304/303 304/299/304 292/298/292 291/301/291 
f 305/308/305 306/303/306 296/302/296 295/305/295 
f 307/312/307 308/307/308 300/306/300 299/309/299 
f 310/314/310 309/319/309 301/311/301 302/300/302 
f 311/316/311 312/313/312 304/299/304 303/304/303 
f 313/318/313 314/315/314 306/303/306 305/308/305 
f 315/320/315 316/317/316 308/307/308 307/312/307 
f 318/322/318 317/327/317 309/319/309 310/314/310 
f 319/324/319 320/321/320 312/313/312 311/316/311 
f 321/326/321 322/323/322 314/315/314 313/318/313 
f 323/328/323 324/325/324 316/317/316 315/320/315 
f 326/330/326 325/335/325 317/327/317 318/322/318 
f 327/332/327 328/329/328 320/321/320 319/324/319 
f 329/334/329 330/331/330 322/323/322 321/326/321 
f 331/336/331 332/333/332 324/325/324 323/328/323 
f 334/343/334 333/338/333 341/346/341 342/351/342 
f 335/337/335 336/340/336 346/348/346 345/345/345 
f 337/339/337 338/342/338 350/350/350 349/347/349 
f 339/341/339 340/344/340 354/352/354 353/349/353 
f 344/353/344 343/366/343 342/351/342 341/346/341 
f 345/345/345 346/348/346 347/357/347 348/354/348 
f 349/347/349 350/350/350 351/361/351 352/358/352 
f 353/349/353 354/352/354 355/365/355 356/362/356 
f 358/356/358 357/367/357 343/366/343 344/353/344 
f 359/360/359 360/355/360 348/354/348 347/357/347 
f 361/364/361 362/359/362 352/358/352 351/361/351 
f 363/368/363 364/363/364 356/362/356 355/365/355 
f 366/370/366 365/375/365 357/367/357 358/356/358 
f 367/372/367 368/369/368 360/355/360 359/360/359 
f 369/374/369 370/371/370 362/359/362 361/364/361 
f 371/376/371 372/373/372 364/363/364 363/368/363 
f 376/385/376 375/398/375 374/383/374 373/378/373 
f 377/377/377 378/380/378 379/389/379 380/386/380 
f 381/379/381 382/382/382 383/393/383 384/390/384 
f 385/381/385 386/384/386 387/397/387 388/394/388 
f 392/401/392 391/414/391 390/399/390 389/388/389 
f 393/387/393 394/392/394 395/405/395 396/402/396 
f 399/406/399 397/391/397 398/396/398 510/409/510 
f 400/395/400 401/400/401 402/413/402 509/410/509 
f 406/417/406 405/430/405 404/415/404 403/404/403 
f 407/403/407 408/408/408 409/421/409 410/418/410 
f 412/425/412 413/422/413 411/407/411 512/412/512 
f 416/416/416 415/429/415 414/426/414 511/411/511 
f 420/433/420 419/446/419 418/431/418 417/420/417 
f 421/419/421 422/424/422 423/437/423 424/434/424 
f 425/423/425 426/428/426 427/441/427 428/438/428 
f 429/427/429 430/432/430 431/445/431 432/442/432 
f 436/449/436 435/462/435 434/447/434 433/436/433 
f 437/435/437 438/440/438 439/453/439 440/450/440 
f 441/439/441 442/444/442 443/457/443 444/454/444 
f 445/443/445 446/448/446 447/461/447 448/458/448 
f 450/452/450 449/463/449 435/462/435 436/449/436 
f 451/456/451 452/451/452 440/450/440 439/453/439 
f 453/460/453 454/455/454 444/454/444 443/457/443 
f 455/464/455 456/459/456 448/458/448 447/461/447 
f 458/466/458 457/471/457 449/463/449 450/452/450 
f 459/468/459 460/465/460 452/451/452 451/456/451 
f 461/470/461 462/467/462 454/455/454 453/460/453 
f 463/472/463 464/469/464 456/459/456 455/464/455 
f 466/479/466 465/474/465 474/482/474 473/487/473 
f 467/473/467 468/476/468 475/484/475 476/481/476 
f 469/475/469 470/478/470 477/486/477 478/483/478 
f 471/477/471 472/480/472 479/488/479 480/485/480 
f 482/495/482 481/490/481 489/498/489 490/503/490 
f 483/489/483 484/492/484 492/500/492 491/497/491 
f 485/491/485 486/494/486 494/502/494 493/499/493 
f 487/493/487 488/496/488 496/504/496 495/501/495 
f 490/503/490 489/498/489 499/506/499 498/511/498 
f 491/497/491 492/500/492 501/508/501 502/505/502 
f 493/499/493 494/502/494 504/510/504 505/507/505 
f 495/501/495 496/504/496 507/512/507 508/509/508 
f 497/57/497 498/511/498 499/506/499 
f 502/505/502 501/508/501 500/58/500 
f 505/507/505 504/510/504 503/59/503 
f 508/509/508 507/512/507 506/60/506 
f 8/26/8 18/25/18 14/16/14 5/15/5 
f 4/30/4 7/29/7 6/12/6 1/11/1 
f 13/34/13 3/33/3 2/24/2 9/23/9 
f 16/42/16 11/41/11 10/20/10 15/19/15 
f 36/234/36 26/233/26 23/14/23 32/13/32 
f 31/250/31 34/249/34 33/18/33 27/17/27 
f 22/242/22 29/241/29 28/22/28 19/21/19 
f 25/246/25 21/245/21 20/10/20 24/9/24 
f 19/21/19 2/24/2 1/11/1 20/10/20 
f 5/15/5 23/14/23 24/9/24 6/12/6 
f 15/19/15 33/18/33 32/13/32 14/16/14 
f 9/23/9 28/22/28 27/17/27 10/20/10 
f 40/28/40 43/27/43 41/2/41 37/1/37 
f 42/32/42 46/31/46 44/3/44 41/2/41 
f 45/36/45 50/35/50 47/4/47 44/3/44 
f 48/50/48 38/49/38 37/1/37 47/4/47 
f 7/29/7 42/32/42 43/27/43 8/26/8 
f 39/46/39 17/45/17 18/25/18 40/28/40 
f 3/33/3 45/36/45 46/31/46 4/30/4 
f 12/54/12 49/53/49 50/35/50 13/34/13 
f 60/74/60 55/73/55 51/44/51 56/43/56 
f 64/62/64 58/61/58 57/48/57 61/47/61 
f 68/66/68 63/65/63 62/52/62 65/51/65 
f 53/70/53 67/69/67 66/56/66 52/55/52 
f 17/45/17 57/48/57 56/43/56 16/42/16 
f 52/55/52 12/54/12 11/41/11 51/44/51 
f 38/49/38 62/52/62 61/47/61 39/46/39 
f 49/53/49 66/56/66 65/51/65 48/50/48 
f 72/82/72 76/81/76 73/38/73 69/37/69 
f 74/64/74 79/63/79 77/39/77 73/38/73 
f 78/68/78 82/67/82 80/40/80 77/39/77 
f 81/72/81 70/71/70 69/37/69 80/40/80 
f 75/78/75 59/77/59 58/61/58 74/64/74 
f 54/86/54 71/85/71 70/71/70 53/70/53 
f 63/65/63 78/68/78 79/63/79 64/62/64 
f 67/69/67 81/72/81 82/67/82 68/66/68 
f 92/106/92 87/105/87 83/76/83 88/75/88 
f 96/94/96 90/93/90 89/80/89 93/79/93 
f 100/98/100 95/97/95 94/84/94 97/83/97 
f 85/102/85 99/101/99 98/88/98 84/87/84 
f 59/77/59 89/80/89 88/75/88 60/74/60 
f 84/87/84 54/86/54 55/73/55 83/76/83 
f 76/81/76 94/84/94 93/79/93 75/78/75 
f 71/85/71 98/88/98 97/83/97 72/82/72 
f 110/266/110 105/265/105 101/114/101 106/113/106 
f 114/270/114 109/269/109 108/96/108 111/95/111 
f 118/274/118 113/273/113 112/100/112 115/99/115 
f 104/278/104 117/277/117 116/104/116 103/103/103 
f 107/110/107 91/109/91 90/93/90 108/96/108 
f 86/118/86 102/117/102 103/103/103 85/102/85 
f 95/97/95 112/100/112 111/95/111 96/94/96 
f 99/101/99 116/104/116 115/99/115 100/98/100 
f 128/138/128 123/137/123 119/108/119 124/107/124 
f 133/126/133 126/125/126 125/112/125 129/111/129 
f 138/154/138 131/153/131 130/116/130 134/115/134 
f 121/134/121 136/133/136 135/120/135 120/119/120 
f 91/109/91 125/112/125 124/107/124 92/106/92 
f 120/119/120 86/118/86 87/105/87 119/108/119 
f 106/113/106 130/116/130 129/111/129 107/110/107 
f 102/117/102 135/120/135 134/115/134 101/114/101 
f 142/146/142 146/145/146 143/90/143 139/89/139 
f 144/128/144 150/127/150 147/91/147 143/90/143 
f 148/162/148 154/161/154 151/92/151 147/91/147 
f 152/136/152 140/135/140 139/89/139 151/92/151 
f 145/142/145 127/141/127 126/125/126 144/128/144 
f 122/150/122 141/149/141 140/135/140 121/134/121 
f 132/166/132 149/165/149 150/127/150 133/126/133 
f 153/158/153 137/157/137 136/133/136 152/136/152 
f 164/202/164 159/201/159 155/140/155 160/139/160 
f 168/174/168 162/173/162 161/144/161 165/143/165 
f 172/178/172 167/177/167 166/148/166 169/147/169 
f 157/182/157 171/181/171 170/152/170 156/151/156 
f 177/218/177 182/217/182 178/156/178 173/155/173 
f 186/190/186 175/189/175 174/160/174 183/159/183 
f 190/194/190 185/193/185 184/164/184 187/163/187 
f 180/198/180 189/197/189 188/168/188 179/167/179 
f 127/141/127 161/144/161 160/139/160 128/138/128 
f 156/151/156 122/150/122 123/137/123 155/140/155 
f 146/145/146 166/148/166 165/143/165 145/142/145 
f 141/149/141 170/152/170 169/147/169 142/146/142 
f 137/157/137 174/160/174 173/155/173 138/154/138 
f 179/167/179 132/166/132 131/153/131 178/156/178 
f 154/161/154 184/164/184 183/159/183 153/158/153 
f 149/165/149 188/168/188 187/163/187 148/162/148 
f 194/210/194 198/209/198 195/122/195 191/121/191 
f 196/176/196 201/175/201 199/123/199 195/122/195 
f 200/180/200 204/179/204 202/124/202 199/123/199 
f 203/184/203 192/183/192 191/121/191 202/124/202 
f 212/226/212 208/225/208 205/130/205 209/129/209 
f 206/192/206 215/191/215 213/131/213 205/130/205 
f 214/196/214 218/195/218 216/132/216 213/131/213 
f 217/200/217 210/199/210 209/129/209 216/132/216 
f 197/206/197 163/205/163 162/173/162 196/176/196 
f 158/214/158 193/213/193 192/183/192 157/182/157 
f 167/177/167 200/180/200 201/175/201 168/174/168 
f 171/181/171 203/184/203 204/179/204 172/178/172 
f 207/222/207 176/221/176 175/189/175 206/192/206 
f 181/230/181 211/229/211 210/199/210 180/198/180 
f 185/193/185 214/196/214 215/191/215 186/190/186 
f 189/197/189 217/200/217 218/195/218 190/194/190 
f 221/204/221 224/203/224 222/170/222 219/169/219 
f 223/208/223 227/207/227 225/171/225 222/170/222 
f 226/212/226 230/211/230 228/172/228 225/171/225 
f 229/216/229 220/215/220 219/169/219 228/172/228 
f 236/220/236 233/219/233 231/186/231 234/185/234 
f 232/224/232 239/223/239 237/187/237 231/186/231 
f 238/228/238 242/227/242 240/188/240 237/187/237 
f 241/232/241 235/231/235 234/185/234 240/188/240 
f 163/205/163 223/208/223 224/203/224 164/202/164 
f 220/215/220 158/214/158 159/201/159 221/204/221 
f 198/209/198 226/212/226 227/207/227 197/206/197 
f 193/213/193 229/216/229 230/211/230 194/210/194 
f 176/221/176 232/224/232 233/219/233 177/218/177 
f 235/231/235 181/230/181 182/217/182 236/220/236 
f 208/225/208 238/228/238 239/223/239 207/222/207 
f 211/229/211 241/232/241 242/227/242 212/226/212 
f 245/236/245 249/235/249 246/6/246 243/5/243 
f 247/258/247 253/257/253 250/7/250 246/6/246 
f 251/244/251 256/243/256 254/8/254 250/7/250 
f 255/248/255 244/247/244 243/5/243 254/8/254 
f 35/262/35 248/261/248 249/235/249 36/234/36 
f 244/247/244 25/246/25 26/233/26 245/236/245 
f 252/254/252 30/253/30 29/241/29 251/244/251 
f 21/245/21 255/248/255 256/243/256 22/242/22 
f 259/252/259 262/251/262 260/238/260 257/237/257 
f 261/256/261 265/255/265 263/239/263 260/238/260 
f 264/260/264 268/259/268 266/240/266 263/239/263 
f 267/264/267 258/263/258 257/237/257 266/240/266 
f 30/253/30 261/256/261 262/251/262 31/250/31 
f 258/263/258 35/262/35 34/249/34 259/252/259 
f 253/257/253 264/260/264 265/255/265 252/254/252 
f 248/261/248 267/264/267 268/259/268 247/258/247 
f 276/282/276 272/281/272 269/268/269 273/267/273 
f 280/286/280 275/285/275 274/272/274 277/271/277 
f 284/290/284 279/289/279 278/276/278 281/275/281 
f 271/294/271 283/293/283 282/280/282 270/279/270 
f 109/269/109 274/272/274 273/267/273 110/266/110 
f 270/279/270 104/278/104 105/265/105 269/268/269 
f 113/273/113 278/276/278 277/271/277 114/270/114 
f 117/277/117 282/280/282 281/275/281 118/274/118 
f 292/298/292 288/297/288 285/284/285 289/283/289 
f 296/302/296 291/301/291 290/288/290 293/287/293 
f 300/306/300 295/305/295 294/292/294 297/291/297 
f 287/310/287 299/309/299 298/296/298 286/295/286 
f 275/285/275 290/288/290 289/283/289 276/282/276 
f 286/295/286 271/294/271 272/281/272 285/284/285 
f 279/289/279 294/292/294 293/287/293 280/286/280 
f 283/293/283 298/296/298 297/291/297 284/290/284 
f 327/332/327 336/340/336 335/337/335 328/329/328 
f 334/343/334 325/335/325 326/330/326 333/338/333 
f 329/334/329 338/342/338 337/339/337 330/331/330 
f 331/336/331 340/344/340 339/341/339 332/333/332 
f 348/354/348 344/353/344 341/346/341 345/345/345 
f 352/358/352 347/357/347 346/348/346 349/347/349 
f 356/362/356 351/361/351 350/350/350 353/349/353 
f 343/366/343 355/365/355 354/352/354 342/351/342 
f 380/386/380 376/385/376 373/378/373 377/377/377 
f 384/390/384 379/389/379 378/380/378 381/379/381 
f 388/394/388 383/393/383 382/382/382 385/381/385 
f 375/398/375 387/397/387 386/384/386 374/383/374 
f 367/372/367 378/380/378 377/377/377 368/369/368 
f 374/383/374 365/375/365 366/370/366 373/378/373 
f 369/374/369 382/382/382 381/379/381 370/371/370 
f 371/376/371 386/384/386 385/381/385 372/373/372 
f 396/402/396 392/401/392 389/388/389 393/387/393 
f 399/406/399 395/405/395 394/392/394 397/391/397 
f 391/414/391 402/413/402 401/400/401 390/399/390 
f 379/389/379 394/392/394 393/387/393 380/386/380 
f 390/399/390 375/398/375 376/385/376 389/388/389 
f 383/393/383 398/396/398 397/391/397 384/390/384 
f 387/397/387 401/400/401 400/395/400 388/394/388 
f 410/418/410 406/417/406 403/404/403 407/403/407 
f 413/422/413 409/421/409 408/408/408 411/407/411 
f 405/430/405 415/429/415 416/416/416 404/415/404 
f 395/405/395 408/408/408 407/403/407 396/402/396 
f 404/415/404 391/414/391 392/401/392 403/404/403 
f 424/434/424 420/433/420 417/420/417 421/419/421 
f 428/438/428 423/437/423 422/424/422 425/423/425 
f 432/442/432 427/441/427 426/428/426 429/427/429 
f 419/446/419 431/445/431 430/432/430 418/431/418 
f 409/421/409 422/424/422 421/419/421 410/418/410 
f 418/431/418 405/430/405 406/417/406 417/420/417 
f 412/425/412 426/428/426 425/423/425 413/422/413 
f 415/429/415 430/432/430 429/427/429 414/426/414 
f 440/450/440 436/449/436 433/436/433 437/435/437 
f 444/454/444 439/453/439 438/440/438 441/439/441 
f 448/458/448 443/457/443 442/444/442 445/443/445 
f 435/462/435 447/461/447 446/448/446 434/447/434 
f 423/437/423 438/440/438 437/435/437 424/434/424 
f 434/447/434 419/446/419 420/433/420 433/436/433 
f 427/441/427 442/444/442 441/439/441 428/438/428 
f 431/445/431 446/448/446 445/443/445 432/442/432 
f 459/468/459 468/476/468 467/473/467 460/465/460 
f 466/479/466 457/471/457 458/466/458 465/474/465 
f 461/470/461 470/478/470 469/475/469 462/467/462 
f 463/472/463 472/480/472 471/477/471 464/469/464 
f 475/484/475 484/492/484 483/489/483 476/481/476 
f 482/495/482 473/487/473 474/482/474 481/490/481 
f 477/486/477 486/494/486 485/491/485 478/483/478 
f 479/488/479 488/496/488 487/493/487 480/485/480 
f 499/506/499 502/505/502 500/58/500 497/57/497 
f 501/508/501 505/507/505 503/59/503 500/58/500 
f 504/510/504 508/509/508 506/60/506 503/59/503 
f 507/512/507 498/511/498 497/57/497 506/60/506 
