%YAML 1.1
%TAG !u! tag:unity3d.com,2011:
--- !u!21 &2100000
Material:
  serializedVersion: 6
  m_ObjectHideFlags: 0
  m_CorrespondingSourceObject: {fileID: 0}
  m_PrefabInstance: {fileID: 0}
  m_PrefabAsset: {fileID: 0}
  m_Name: TCP2_Demo_Yellow
  m_Shader: {fileID: 4800000, guid: 9ec7ccbd4289d0543939f61121224d93, type: 3}
  m_ShaderKeywords: TCP2_COLORS_AS_NORMALS TCP2_DISABLE_WRAPPED_LIGHT TCP2_SPEC TCP2_ZSMOOTH_ON
    _EMISSION
  m_LightmapFlags: 1
  m_EnableInstancingVariants: 0
  m_DoubleSidedGI: 0
  m_CustomRenderQueue: -1
  stringTagMap: {}
  disabledShaderPasses: []
  m_SavedProperties:
    serializedVersion: 3
    m_TexEnvs:
    - _BumpMap:
        m_Texture: {fileID: 0}
        m_Scale: {x: 1, y: 1}
        m_Offset: {x: 0, y: 0}
    - _MainTex:
        m_Texture: {fileID: 2800000, guid: 9545eeab9224cb142a0e3f4972f2a8d1, type: 3}
        m_Scale: {x: 1, y: 1}
        m_Offset: {x: 0, y: 0}
    - _Ramp:
        m_Texture: {fileID: 0}
        m_Scale: {x: 1, y: 1}
        m_Offset: {x: 0, y: 0}
    m_Floats:
    - _Offset1: -19.31
    - _Offset2: 0
    - _Outline: 0.13
    - _RampSmooth: 0.35
    - _RampThreshold: 0.16
    - _Shininess: 0.11
    - _SpecSmooth: 0.05
    - _TexLod: 10
    - _ZSmooth: 0.81
    m_Colors:
    - _Color: {r: 1, g: 1, b: 1, a: 1}
    - _HColor: {r: 1, g: 1, b: 1, a: 1}
    - _OutlineColor: {r: 1, g: 0.84732133, b: 0.25943398, a: 1}
    - _SColor: {r: 0.5808823, g: 0.5808823, b: 0.5808823, a: 1}
    - _SpecColor: {r: 0.5, g: 0.5, b: 0.5, a: 1}
